<svg width="1919" height="934" viewBox="0 0 1919 934" fill="none" xmlns="http://www.w3.org/2000/svg">
<mask id="mask0_24_221" style="mask-type:alpha" maskUnits="userSpaceOnUse" x="-1" y="0" width="1920" height="934">
<path d="M-1 0H1919V733.92C1919 844.377 1829.46 933.92 1719 933.92H199C88.5431 933.92 -1 844.377 -1 733.92V0Z" fill="#00AA68"/>
</mask>
<g mask="url(#mask0_24_221)">
<path d="M-1 -0.0935059H1959V733.92C1959 844.377 1869.46 933.921 1759 933.921H199C88.5431 933.921 -1 844.378 -1 733.921V-0.0935059Z" fill="#F3F7FD"/>
<path opacity="0.0374349" d="M30.4561 -1165.91L2623.73 1410.63L2459.46 1573.84C2381.1 1651.69 2254.06 1651.69 2175.7 1573.84L-133.816 -720.775C-212.174 -798.627 -212.174 -924.849 -133.816 -1002.7L30.4561 -1165.91Z" fill="url(#paint0_linear_24_221)"/>
<path opacity="0.0437826" d="M30.4561 -1165.21L2623.02 1410.63L2459.11 1573.49C2380.95 1651.14 2254.22 1651.14 2176.06 1573.49L-133.462 -721.128C-211.623 -798.785 -211.623 -924.692 -133.462 -1002.35L30.4561 -1165.21Z" stroke="white"/>
<path opacity="0.0374349" d="M2431.79 1600.89L-164.247 -972.881L-328.693 -809.844C-407.134 -732.077 -407.134 -605.99 -328.693 -528.222L1983.28 1763.92C2061.72 1841.69 2188.9 1841.69 2267.34 1763.92L2431.79 1600.89Z" fill="url(#paint1_linear_24_221)"/>
<path opacity="0.0374349" d="M-491.456 -802.486L2104.58 1771.28L1940.13 1934.32C1861.69 2012.08 1734.51 2012.08 1656.07 1934.32L-655.903 -357.828C-734.343 -435.596 -734.343 -561.682 -655.903 -639.45L-491.456 -802.486Z" fill="url(#paint2_linear_24_221)"/>
<path opacity="0.0374349" d="M1995.51 2033.42L-600.524 -540.345L-764.971 -377.309C-843.411 -299.541 -843.411 -173.455 -764.971 -95.6871L1547 2196.46C1625.44 2274.22 1752.62 2274.22 1831.06 2196.46L1995.51 2033.42Z" fill="url(#paint3_linear_24_221)"/>
</g>
<defs>
<linearGradient id="paint0_linear_24_221" x1="2623.73" y1="1410.63" x2="47.2468" y2="-1182.6" gradientUnits="userSpaceOnUse">
<stop/>
<stop offset="1" stop-color="white"/>
</linearGradient>
<linearGradient id="paint1_linear_24_221" x1="-164.247" y1="-972.881" x2="2409.42" y2="1623.05" gradientUnits="userSpaceOnUse">
<stop/>
<stop offset="1" stop-color="white"/>
</linearGradient>
<linearGradient id="paint2_linear_24_221" x1="2104.58" y1="1771.28" x2="-469.094" y2="-824.656" gradientUnits="userSpaceOnUse">
<stop/>
<stop offset="1" stop-color="white"/>
</linearGradient>
<linearGradient id="paint3_linear_24_221" x1="-600.524" y1="-540.345" x2="1973.15" y2="2055.59" gradientUnits="userSpaceOnUse">
<stop/>
<stop offset="1" stop-color="white"/>
</linearGradient>
</defs>
</svg>
