<?xml version="1.0" encoding="utf-8"?>
<!-- Generator: Adobe Illustrator 23.1.0, SVG Export Plug-In . SVG Version: 6.00 Build 0)  -->
<svg version="1.1" xmlns="http://www.w3.org/2000/svg" xmlns:xlink="http://www.w3.org/1999/xlink" x="0px" y="0px"
	 viewBox="0 0 3710 3301.45" style="enable-background:new 0 0 3710 3301.45;" xml:space="preserve">
<style type="text/css">
	.st0{display:none;}
	.st1{display:inline;}
	.st2{fill:#FFFFFF;}
	.st3{fill:url(#SVGID_1_);}
	.st4{fill:url(#SVGID_2_);}
	.st5{fill:#7D97F4;}
	.st6{fill:url(#SVGID_3_);}
	.st7{fill:#91B3FA;}
	.st8{fill:url(#SVGID_4_);}
	.st9{opacity:0.7;fill:url(#SVGID_5_);}
	.st10{opacity:0.7;fill:url(#SVGID_6_);}
	.st11{opacity:0.7;fill:url(#SVGID_7_);}
	.st12{opacity:0.7;fill:url(#SVGID_8_);}
	.st13{opacity:0.64;}
	.st14{fill:url(#SVGID_9_);}
	.st15{fill:url(#SVGID_10_);}
	.st16{fill:url(#SVGID_11_);}
	.st17{fill:url(#SVGID_12_);}
	.st18{fill:url(#SVGID_13_);}
	.st19{fill:url(#SVGID_14_);}
	.st20{fill:url(#SVGID_15_);}
	.st21{fill:url(#SVGID_16_);}
	.st22{fill:url(#SVGID_17_);}
	.st23{fill:url(#SVGID_18_);}
	.st24{fill:url(#SVGID_19_);}
	.st25{fill:url(#SVGID_20_);}
	.st26{fill:url(#SVGID_21_);}
	.st27{fill:url(#SVGID_22_);}
	.st28{fill:url(#SVGID_23_);}
	.st29{fill:url(#SVGID_24_);}
	.st30{fill:url(#SVGID_25_);}
	.st31{fill:url(#SVGID_26_);}
	.st32{fill:url(#SVGID_27_);}
	.st33{fill:url(#SVGID_28_);}
	.st34{fill:url(#SVGID_29_);}
	.st35{fill:url(#SVGID_30_);}
	.st36{fill:url(#SVGID_31_);}
	.st37{fill:url(#SVGID_32_);}
	.st38{fill:url(#SVGID_33_);}
	.st39{fill:url(#SVGID_34_);}
	.st40{fill:url(#SVGID_35_);}
	.st41{fill:url(#SVGID_36_);}
	.st42{fill:url(#SVGID_37_);}
	.st43{fill:url(#SVGID_38_);}
	.st44{fill:url(#SVGID_39_);}
	.st45{fill:url(#SVGID_40_);}
	.st46{fill:url(#SVGID_41_);}
	.st47{fill:url(#SVGID_42_);}
	.st48{fill:url(#SVGID_43_);}
	.st49{fill:url(#SVGID_44_);}
	.st50{fill:url(#SVGID_45_);}
	.st51{fill:url(#SVGID_46_);}
	.st52{fill:url(#SVGID_47_);}
	.st53{fill:url(#SVGID_48_);}
	.st54{fill:url(#SVGID_49_);}
	.st55{fill:url(#SVGID_50_);}
	.st56{fill:url(#SVGID_51_);}
	.st57{fill:url(#SVGID_52_);}
	.st58{fill:url(#SVGID_53_);}
	.st59{fill:url(#SVGID_54_);}
	.st60{fill:url(#SVGID_55_);}
	.st61{fill:url(#SVGID_56_);}
	.st62{fill:url(#SVGID_57_);}
	.st63{fill:url(#SVGID_58_);}
	.st64{fill:url(#SVGID_59_);}
	.st65{fill:url(#SVGID_60_);}
	.st66{fill:url(#SVGID_61_);}
	.st67{fill:url(#SVGID_62_);}
	.st68{fill:url(#SVGID_63_);}
	.st69{fill:url(#SVGID_64_);}
	.st70{fill:url(#SVGID_65_);}
	.st71{fill:url(#SVGID_66_);}
	.st72{fill:url(#SVGID_67_);}
	.st73{fill:url(#SVGID_68_);}
	.st74{fill:url(#SVGID_69_);}
	.st75{fill:url(#SVGID_70_);}
	.st76{fill:url(#SVGID_71_);}
	.st77{fill:url(#SVGID_72_);}
	.st78{fill:url(#SVGID_73_);}
	.st79{fill:url(#SVGID_74_);}
	.st80{fill:url(#SVGID_75_);}
	.st81{fill:url(#SVGID_76_);}
	.st82{fill:#BDD0FB;}
	.st83{fill:url(#SVGID_77_);}
	.st84{opacity:0.3;}
	.st85{fill:url(#SVGID_78_);}
	.st86{fill:url(#SVGID_79_);}
	.st87{fill:url(#SVGID_80_);}
	.st88{fill:url(#SVGID_81_);}
</style>
<g id="Background" class="st0">
	<g class="st1">
		<g>
			<rect y="-408.55" class="st2" width="3710" height="3710"/>
		</g>
	</g>
</g>
<g id="Illustration">
	<g>
		<linearGradient id="SVGID_1_" gradientUnits="userSpaceOnUse" x1="3456.5471" y1="2858.6682" x2="1407.1082" y2="1065.4105">
			<stop  offset="0" style="stop-color:#DAE3FE"/>
			<stop  offset="1" style="stop-color:#E9EFFD"/>
		</linearGradient>
		<path class="st3" d="M3108.25,1927.35c-264.87,623.66-970.42,973.04-1582.28,878.8c-99.56-15.34-372.51-61.02-614.17-276.53
			C446.59,2114.75,347.1,1293.24,722.37,714.31C995.5,292.95,1485.12,54.09,1950.35,66.04c100.21,2.57,484.26,18.43,821.78,296.74
			c49.57,40.88,158.91,138.01,257.46,292.12C3260.98,1016.75,3280.87,1520.9,3108.25,1927.35z"/>
		<g>
			<linearGradient id="SVGID_2_" gradientUnits="userSpaceOnUse" x1="710.6176" y1="1366.3594" x2="1220.7448" y2="1474.3864">
				<stop  offset="0" style="stop-color:#4F52FF"/>
				<stop  offset="1" style="stop-color:#4042E2"/>
			</linearGradient>
			<path class="st4" d="M661.38,951.03l185.86,203.44c-116.3,87.73-189.25,259.87,5.43,464.58l-261.73,126.86
				C407.5,1424.69,433.44,1170.86,661.38,951.03z"/>
			<path class="st5" d="M551.91,1672.12l180.32,2.9l32.38-177.59c99.04,203.42,333.09,288.43,600.9,201.66l135.23,251.39
				C1114.22,2126.68,722.97,2036.25,551.91,1672.12z"/>
			<linearGradient id="SVGID_3_" gradientUnits="userSpaceOnUse" x1="2535.0554" y1="611.6464" x2="2499.2117" y2="1247.8755">
				<stop  offset="0" style="stop-color:#4F52FF"/>
				<stop  offset="1" style="stop-color:#4042E2"/>
			</linearGradient>
			<path class="st6" d="M2064.13,1403.38c146.17-288.92,531.96-395.49,809.39-237.28l281.2-93.08
				c-328.44-438.14-925.24-355.01-1295.99,82.82L2064.13,1403.38z"/>
			<path class="st7" d="M2712.84,1709.21l119.31,278.71c435.34-181.33,567.07-795.33,174.02-1065.85l2.86,180.59l-184.98,38.49
				C3096.49,1270.39,2975.09,1636.65,2712.84,1709.21z"/>
			<path class="st5" d="M1935.76,1788.07c412.44,296.62,773.32,335.3,1061.08,99.59l-202.53-71.97l56.37-180.39
				c-252.54,175.27-487.24,118.24-712.54-61.22L1935.76,1788.07z"/>
			<path class="st5" d="M661.38,951.03l0,195.39l185.86,8.05c120.52-78.18,295.03-71.87,514.72-1.57l127.66-283.03
				C1155.8,726.92,882.13,761.05,661.38,951.03z"/>
			<linearGradient id="SVGID_4_" gradientUnits="userSpaceOnUse" x1="1517.7701" y1="869.6097" x2="2423.9946" y2="2460.0027">
				<stop  offset="0" style="stop-color:#4F52FF"/>
				<stop  offset="1" style="stop-color:#4042E2"/>
			</linearGradient>
			<path class="st8" d="M1361.96,1152.9l-104.41-217.49l232.07-65.54c150.75,78.63,272.16,174.93,369.12,285.96
				c106.73,235.05,253.2,435.65,436.39,521.27l-240.42,2.53l37.02,209.71c-94.2-56.41-185.1-119.73-265.08-188.76l-180.53-320.98
				C1583.16,1284.01,1495.34,1206.16,1361.96,1152.9z"/>
			<path class="st7" d="M1858.74,1155.84c-70.62,75.51-116.85,186.83-183.21,265.93c-105.84,126.16-237.83,289.16-476.01,310.37
				l194.45,100.61l-115.76,189.82c388.43-77.2,660.21-330.57,785.93-619.18v-277.76L1858.74,1155.84z"/>
		</g>
		<g>
			<path class="st5" d="M1924.68,347.91l945.44-4.13c9.04-0.08,16.4,7.25,16.35,16.3L2884.45,691c-0.05,9.1-7.57,16.38-16.67,16.1
				c-83.37-2.49-937.84-13.45-954.18-12.77c-16.15,0.68-7.37-260.66-4.96-330.79C1908.93,354.87,1916.01,347.99,1924.68,347.91z"/>
			<path class="st2" d="M2868.27,694.31l-0.11,0c-53.28-1.59-563.88-7.96-809.27-11.03c-71.75-0.89-122.68-1.53-136.26-1.72
				l-1.27-0.02l-0.22-1.25c-5.8-32.72-5.7-142.09,0.29-316.31c0.06-1.82,1.54-3.25,3.36-3.27l945.44-4.13c0.93,0,1.79,0.36,2.43,1
				c0.65,0.65,0.99,1.48,0.99,2.41l-2.02,330.93C2871.63,692.79,2870.12,694.31,2868.27,694.31z M1923.95,678.51
				c15.27,0.21,65.31,0.84,134.98,1.7c245.39,3.06,756.02,9.44,809.32,11.03l0.09,0.01c0.09,0,0.23-0.15,0.23-0.33l2.02-330.93
				l-0.35-1.86l0.01,1.53l-945.43,4.13c-0.17,0-0.31,0.13-0.32,0.31C1918.59,535.93,1918.41,644.52,1923.95,678.51z"/>
			<linearGradient id="SVGID_5_" gradientUnits="userSpaceOnUse" x1="1965.1348" y1="433.3709" x2="2340.6223" y2="433.3709">
				<stop  offset="0" style="stop-color:#DAE3FE"/>
				<stop  offset="1" style="stop-color:#E9EFFD"/>
			</linearGradient>
			<path class="st9" d="M1965.13,433.37L1965.13,433.37c0,8.95,2.99,16.2,6.67,16.2h362.15c3.68,0,6.67-7.25,6.67-16.2l0,0
				c0-8.95-2.99-16.2-6.67-16.2H1971.8C1968.12,417.17,1965.13,424.42,1965.13,433.37z"/>
			<linearGradient id="SVGID_6_" gradientUnits="userSpaceOnUse" x1="1965.1348" y1="488.6099" x2="2340.6223" y2="488.6099">
				<stop  offset="0" style="stop-color:#DAE3FE"/>
				<stop  offset="1" style="stop-color:#E9EFFD"/>
			</linearGradient>
			<path class="st10" d="M1965.13,488.61L1965.13,488.61c0,8.95,2.99,16.2,6.67,16.2h362.15c3.68,0,6.67-7.25,6.67-16.2l0,0
				c0-8.95-2.99-16.2-6.67-16.2H1971.8C1968.12,472.41,1965.13,479.66,1965.13,488.61z"/>
			<linearGradient id="SVGID_7_" gradientUnits="userSpaceOnUse" x1="1965.1348" y1="543.8491" x2="2340.6223" y2="543.8491">
				<stop  offset="0" style="stop-color:#DAE3FE"/>
				<stop  offset="1" style="stop-color:#E9EFFD"/>
			</linearGradient>
			<path class="st11" d="M1965.13,543.85L1965.13,543.85c0,8.95,2.99,16.2,6.67,16.2h362.15c3.68,0,6.67-7.25,6.67-16.2l0,0
				c0-8.95-2.99-16.2-6.67-16.2H1971.8C1968.12,527.65,1965.13,534.9,1965.13,543.85z"/>
			<linearGradient id="SVGID_8_" gradientUnits="userSpaceOnUse" x1="1965.1348" y1="599.088" x2="2340.6223" y2="599.088">
				<stop  offset="0" style="stop-color:#DAE3FE"/>
				<stop  offset="1" style="stop-color:#E9EFFD"/>
			</linearGradient>
			<path class="st12" d="M1965.13,599.09L1965.13,599.09c0,8.95,2.99,16.2,6.67,16.2h362.15c3.68,0,6.67-7.25,6.67-16.2l0,0
				c0-8.95-2.99-16.2-6.67-16.2H1971.8C1968.12,582.88,1965.13,590.14,1965.13,599.09z"/>
			<g>
				<circle class="st2" cx="2432.38" cy="444.79" r="63"/>
				<circle class="st2" cx="2588.94" cy="444.79" r="63"/>
				<circle class="st2" cx="2745.51" cy="446.85" r="63"/>
				<g>
					<path class="st5" d="M2469.81,431.47c1.95,4.74,3.03,9.93,3.03,15.38c0,22.35-18.12,40.46-40.46,40.46
						c-22.35,0-40.46-18.12-40.46-40.46c0-22.35,18.12-40.46,40.46-40.46c0.68,0,1.36,0.02,2.04,0.05v-10.26
						c-0.68-0.03-1.36-0.04-2.04-0.04c-28.01,0-50.71,22.71-50.71,50.71c0,28.01,22.71,50.71,50.71,50.71
						c28.01,0,50.71-22.71,50.71-50.71c0-6.9-1.38-13.47-3.87-19.46L2469.81,431.47z"/>
					<path class="st5" d="M2609.81,481.08c-6.24,3.94-13.63,6.23-21.56,6.23c-22.35,0-40.46-18.12-40.46-40.46
						c0-22.35,18.12-40.46,40.46-40.46c0.68,0,1.36,0.02,2.04,0.05v-10.26c-0.68-0.03-1.36-0.04-2.04-0.04
						c-28.01,0-50.71,22.71-50.71,50.71c0,28.01,22.71,50.71,50.71,50.71c9.77,0,18.9-2.77,26.65-7.56L2609.81,481.08z"/>
					<path class="st5" d="M2779.27,469.6c-7.28,10.69-19.55,17.71-33.46,17.71c-22.35,0-40.46-18.12-40.46-40.46
						c0-22.35,18.12-40.46,40.46-40.46c0.68,0,1.36,0.02,2.04,0.05v-10.26c-0.68-0.03-1.36-0.04-2.04-0.04
						c-28.01,0-50.71,22.71-50.71,50.71c0,28.01,22.71,50.71,50.71,50.71c17.33,0,32.62-8.69,41.77-21.95L2779.27,469.6z"/>
				</g>
				<g class="st13">
					<linearGradient id="SVGID_9_" gradientUnits="userSpaceOnUse" x1="2369.3799" y1="546.1353" x2="2495.373" y2="546.1353">
						<stop  offset="0" style="stop-color:#DAE3FE"/>
						<stop  offset="1" style="stop-color:#E9EFFD"/>
					</linearGradient>
					<path class="st14" d="M2483.71,534.47h-102.66c-6.44,0-11.67,5.22-11.67,11.67s5.22,11.67,11.67,11.67h102.66
						c6.44,0,11.67-5.22,11.67-11.67S2490.15,534.47,2483.71,534.47z"/>
					<linearGradient id="SVGID_10_" gradientUnits="userSpaceOnUse" x1="2525.9446" y1="546.1353" x2="2651.937" y2="546.1353">
						<stop  offset="0" style="stop-color:#DAE3FE"/>
						<stop  offset="1" style="stop-color:#E9EFFD"/>
					</linearGradient>
					<path class="st15" d="M2640.27,534.47h-102.66c-6.44,0-11.67,5.22-11.67,11.67s5.22,11.67,11.67,11.67h102.66
						c6.44,0,11.67-5.22,11.67-11.67S2646.71,534.47,2640.27,534.47z"/>
					<linearGradient id="SVGID_11_" gradientUnits="userSpaceOnUse" x1="2682.5088" y1="546.1353" x2="2808.5015" y2="546.1353">
						<stop  offset="0" style="stop-color:#DAE3FE"/>
						<stop  offset="1" style="stop-color:#E9EFFD"/>
					</linearGradient>
					<path class="st16" d="M2694.18,557.8h102.66c6.44,0,11.67-5.22,11.67-11.67s-5.22-11.67-11.67-11.67h-102.66
						c-6.44,0-11.67,5.22-11.67,11.67S2687.73,557.8,2694.18,557.8z"/>
					<linearGradient id="SVGID_12_" gradientUnits="userSpaceOnUse" x1="2369.3799" y1="616.7864" x2="2495.373" y2="616.7864">
						<stop  offset="0" style="stop-color:#DAE3FE"/>
						<stop  offset="1" style="stop-color:#E9EFFD"/>
					</linearGradient>
					<path class="st17" d="M2483.71,570.77h-102.66c-6.44,0-11.67,5.22-11.67,11.67v68.71c0,6.44,5.22,11.67,11.67,11.67h102.66
						c6.44,0,11.67-5.22,11.67-11.67v-68.71C2495.37,575.99,2490.15,570.77,2483.71,570.77z"/>
					<linearGradient id="SVGID_13_" gradientUnits="userSpaceOnUse" x1="2525.9446" y1="616.7864" x2="2651.937" y2="616.7864">
						<stop  offset="0" style="stop-color:#DAE3FE"/>
						<stop  offset="1" style="stop-color:#E9EFFD"/>
					</linearGradient>
					<path class="st18" d="M2640.27,570.77h-102.66c-6.44,0-11.67,5.22-11.67,11.67v68.71c0,6.44,5.22,11.67,11.67,11.67h102.66
						c6.44,0,11.67-5.22,11.67-11.67v-68.71C2651.94,575.99,2646.71,570.77,2640.27,570.77z"/>
					<linearGradient id="SVGID_14_" gradientUnits="userSpaceOnUse" x1="2682.5088" y1="616.7864" x2="2808.5015" y2="616.7864">
						<stop  offset="0" style="stop-color:#DAE3FE"/>
						<stop  offset="1" style="stop-color:#E9EFFD"/>
					</linearGradient>
					<path class="st19" d="M2796.83,570.77h-102.66c-6.44,0-11.67,5.22-11.67,11.67v68.71c0,6.44,5.22,11.67,11.67,11.67h102.66
						c6.44,0,11.67-5.22,11.67-11.67v-68.71C2808.5,575.99,2803.28,570.77,2796.83,570.77z"/>
				</g>
			</g>
		</g>
		<g>
			<g>
				
					<linearGradient id="SVGID_15_" gradientUnits="userSpaceOnUse" x1="6668.7334" y1="2643.7217" x2="6196.7134" y2="3157.1475" gradientTransform="matrix(1 9.500000e-03 -9.500000e-03 1 -4977.832 -63.4747)">
					<stop  offset="0" style="stop-color:#09005D"/>
					<stop  offset="1" style="stop-color:#1A0F91"/>
				</linearGradient>
				<path class="st20" d="M1516.22,2680.42c0,0-5.15,27.63-7.81,55c-1.04,10.7,7.13,20.07,17.86,20.62
					c36.47,1.87,114.48,5.57,142.49,4.58c4.21-0.15,7-4.43,5.48-8.36l0,0c-1.27-3.29-3.77-5.97-6.96-7.48l-128.34-60.47
					L1516.22,2680.42z"/>
				
					<linearGradient id="SVGID_16_" gradientUnits="userSpaceOnUse" x1="6515.5229" y1="2681.8499" x2="6557.4502" y2="2681.8499" gradientTransform="matrix(1 9.500000e-03 -9.500000e-03 1 -4977.832 -63.4747)">
					<stop  offset="0" style="stop-color:#FEBBBA"/>
					<stop  offset="1" style="stop-color:#FF928E"/>
				</linearGradient>
				<path class="st21" d="M1512.37,2664.12l3.61,33.14c0,0,22.48,10.73,38.01-0.96l-9-36.98L1512.37,2664.12z"/>
				
					<linearGradient id="SVGID_17_" gradientUnits="userSpaceOnUse" x1="6705.9258" y1="2063.0532" x2="6304.2549" y2="2607.4666" gradientTransform="matrix(1 9.500000e-03 -9.500000e-03 1 -4977.832 -63.4747)">
					<stop  offset="0" style="stop-color:#09005D"/>
					<stop  offset="1" style="stop-color:#1A0F91"/>
				</linearGradient>
				<path class="st22" d="M1521.26,2041.81c-1.78,8.63-13.22,431.3,30.16,621.18c0.71,3.1-0.89,6.27-3.84,7.44
					c-6.96,2.77-20.58,6.74-36.87,7.13c-5.04,0.12-9.53-3.2-10.91-8.05c-12.5-44.08-72.29-264.89-78.36-475.34
					c-6.78-235.16,0.08-8,0.08-8l6.68-145.26L1521.26,2041.81z"/>
				
					<linearGradient id="SVGID_18_" gradientUnits="userSpaceOnUse" x1="6562.8438" y1="2546.3545" x2="6090.8042" y2="3059.8015" gradientTransform="matrix(1 9.500000e-03 -9.500000e-03 1 -4977.832 -63.4747)">
					<stop  offset="0" style="stop-color:#09005D"/>
					<stop  offset="1" style="stop-color:#1A0F91"/>
				</linearGradient>
				<path class="st23" d="M1367.8,2693.45c0,0-7.92,13.9-15.8,50.95c-1.42,6.69,3.2,13.15,10,13.89c12.04,1.3,30.57,3,45.42,3.04
					c6.85,0.02,12.25-5.89,11.49-12.7c-1.52-13.57-6.43-35.85-22.1-53.33L1367.8,2693.45z"/>
				
					<linearGradient id="SVGID_19_" gradientUnits="userSpaceOnUse" x1="6364.4126" y1="2679.6936" x2="6400.6123" y2="2679.6936" gradientTransform="matrix(1 9.500000e-03 -9.500000e-03 1 -4977.832 -63.4747)">
					<stop  offset="0" style="stop-color:#FEBBBA"/>
					<stop  offset="1" style="stop-color:#FF928E"/>
				</linearGradient>
				<path class="st24" d="M1361.37,2650.8l8.7,50.15c0,0,9.01,6.84,27.01,2.11l-3.87-53.9L1361.37,2650.8z"/>
				
					<linearGradient id="SVGID_20_" gradientUnits="userSpaceOnUse" x1="6634.3374" y1="2010.2358" x2="6232.6709" y2="2554.6431" gradientTransform="matrix(1 9.500000e-03 -9.500000e-03 1 -4977.832 -63.4747)">
					<stop  offset="0" style="stop-color:#09005D"/>
					<stop  offset="1" style="stop-color:#1A0F91"/>
				</linearGradient>
				<path class="st25" d="M1342.28,2053.08c-39.09,222.69,2.76,551.34,17.31,615.73c0.89,3.94,4.04,6.99,8.02,7.68
					c6.76,1.19,17.9,2.21,28.92-0.88c3.8-1.06,6.49-4.45,6.68-8.39c2.53-51.92,1.91-370.8,37.55-496.48
					c1.81-6.37,5.76-11.9,11.19-15.69l67.29-46.88l5.86-76.76L1342.28,2053.08z"/>
				<g>
					
						<linearGradient id="SVGID_21_" gradientUnits="userSpaceOnUse" x1="5713.1104" y1="3420.093" x2="5786.6694" y2="3065.6719" gradientTransform="matrix(-1 0 0 1 7569.6606 0)">
						<stop  offset="0" style="stop-color:#FF928E"/>
						<stop  offset="1" style="stop-color:#FE7062"/>
					</linearGradient>
					<path class="st26" d="M1581.8,1632.7c-110.74-2.89-233.24,26.86-233.24,26.86c-34.85,192.32-9.73,414.77-9.73,414.77
						c85.53,23.3,182.6-12.01,182.6-12.01c15.02-80.38,83.67-306.35,83.67-306.35c54.18-6.2,98.91-21.39,135.81-41.68
						c-27.69-32.73-40.5-74.15-46-98.62C1655.65,1627.47,1615.96,1633.59,1581.8,1632.7z"/>
					
						<linearGradient id="SVGID_22_" gradientUnits="userSpaceOnUse" x1="6688.1025" y1="1587.9908" x2="6902.3145" y2="1587.9908" gradientTransform="matrix(1 9.500000e-03 -9.500000e-03 1 -4977.832 -63.4747)">
						<stop  offset="0" style="stop-color:#FEBBBA"/>
						<stop  offset="1" style="stop-color:#FF928E"/>
					</linearGradient>
					<path class="st27" d="M1910.51,1472.69c-10.75-13.25-24.58-7.16-24.58-7.16c-16.96,68.69-102.95,123.7-191.01,150.15
						c5.5,24.47,18.31,65.9,46,98.62C1887.41,1633.76,1910.51,1472.69,1910.51,1472.69z"/>
				</g>
				<g>
					<linearGradient id="SVGID_23_" gradientUnits="userSpaceOnUse" x1="1900.5684" y1="1545.9633" x2="1925.0879" y2="1383.2416">
						<stop  offset="0" style="stop-color:#FEBBBA"/>
						<stop  offset="1" style="stop-color:#FF928E"/>
					</linearGradient>
					<path class="st28" d="M1907.84,1476c1.1,3.63-12.13,9.02-19.75-5.86c-0.2-7.1-4.23-37.53,0.07-43.27
						c22.87-30.56,67.01-68.73,67.01-68.73c7.33,7.37,1.17,14.48,1.17,14.48l-21.45,21.92c4.37,8.07,9.72,14.89,12.16,24.63
						c1.85,7.37,0.6,15.22-3.18,21.87c-3.79,6.68-8.96,15.36-13.83,22.15C1920.82,1476.03,1907.84,1476,1907.84,1476z"/>
					
						<linearGradient id="SVGID_24_" gradientUnits="userSpaceOnUse" x1="6901.2876" y1="1443.1742" x2="6961.2646" y2="1350.9595" gradientTransform="matrix(1 9.500000e-03 -9.500000e-03 1 -4977.832 -63.4747)">
						<stop  offset="0" style="stop-color:#FEBBBA"/>
						<stop  offset="1" style="stop-color:#FF928E"/>
					</linearGradient>
					<path class="st29" d="M1925.46,1408.81l-19.51,16.22l-6.23,16.27l17.07,19.3c0,0,6.11-32.35,10.49-39.32
						C1931.66,1414.31,1929.45,1410.9,1925.46,1408.81z"/>
				</g>
				
					<linearGradient id="SVGID_25_" gradientUnits="userSpaceOnUse" x1="5914.8687" y1="3461.9653" x2="5988.4277" y2="3107.5442" gradientTransform="matrix(-1 0 0 1 7569.6606 0)">
					<stop  offset="0" style="stop-color:#FF928E"/>
					<stop  offset="1" style="stop-color:#FE7062"/>
				</linearGradient>
				<path class="st30" d="M1390.02,1767.21l-41.46-107.65c0,0-104.12,69.3-121.99,158.26c19.53,1.63,55.05,7.05,89.7,24.96
					C1324.34,1800.77,1390.02,1767.21,1390.02,1767.21z"/>
				
					<linearGradient id="SVGID_26_" gradientUnits="userSpaceOnUse" x1="6219.3643" y1="1891.3871" x2="6490.4429" y2="1891.3871" gradientTransform="matrix(1 9.500000e-03 -9.500000e-03 1 -4977.832 -63.4747)">
					<stop  offset="0" style="stop-color:#FEBBBA"/>
					<stop  offset="1" style="stop-color:#FF928E"/>
				</linearGradient>
				<path class="st31" d="M1479.47,1868.98c0,0-116.78,64.53-155.43,8.11c-8.03-11.72-9.86-23.3-7.75-34.31
					c-34.65-17.91-70.17-23.34-89.7-24.96c-5.39,26.82-2.95,55.42,12.57,84.45c67.45,126.23,255.42-4.5,255.42-4.5L1479.47,1868.98z
					"/>
				
					<linearGradient id="SVGID_27_" gradientUnits="userSpaceOnUse" x1="6427.5244" y1="1601.593" x2="6534.7046" y2="1601.593" gradientTransform="matrix(1 9.500000e-03 -9.500000e-03 1 -4977.832 -63.4747)">
					<stop  offset="0" style="stop-color:#FEBBBA"/>
					<stop  offset="1" style="stop-color:#FF928E"/>
				</linearGradient>
				<path class="st32" d="M1470.48,1541.71l-36.21,101.58c-0.6,1.68,0.08,3.56,1.63,4.44c9.56,5.4,44.02,21.08,85.98-4.96
					c4.37-2.71,7.37-7.18,8.08-12.27l12.25-88.1L1470.48,1541.71z"/>
				<g>
					
						<linearGradient id="SVGID_28_" gradientUnits="userSpaceOnUse" x1="-758.129" y1="2594.9199" x2="-798.1805" y2="2462.8206" gradientTransform="matrix(0.7523 -0.6588 0.6588 0.7523 428.6042 -919.3558)">
						<stop  offset="0" style="stop-color:#FEBBBA"/>
						<stop  offset="1" style="stop-color:#FF928E"/>
					</linearGradient>
					<path class="st33" d="M1548.05,1448.07c0,0,38,73.21,32.76,102.59c-5.24,29.38-53.18,26.81-94.83,2.51l-28.51-78.94
						L1548.05,1448.07z"/>
					
						<linearGradient id="SVGID_29_" gradientUnits="userSpaceOnUse" x1="-794.2606" y1="2364.7559" x2="-760.7582" y2="2555.844" gradientTransform="matrix(0.7523 -0.6588 0.6588 0.7523 428.6042 -919.3558)">
						<stop  offset="0" style="stop-color:#09005D"/>
						<stop  offset="1" style="stop-color:#1A0F91"/>
					</linearGradient>
					<path class="st34" d="M1488.2,1514.56c1.71-0.74,2.36-2.82,1.35-4.38c-3.06-4.77-8.77-14.48-10.55-22.96
						c0,0-6.91-4.52,17.8-10.19c24.72-5.67,61.59-14.48,69.52-35.4c7.73-20.4-11.58-72.06-43.57-31.35
						c-1.22,1.55-3.57,1.56-4.76-0.01c-5.11-6.79-18.6-20.91-37.58-12.61c-17.77,7.77-19.88,20.71-19.7,27.25
						c0.05,1.92-1.68,3.4-3.57,3.02c-8.93-1.79-30.38-3.46-40.61,18.46c-8.42,18.06-3.16,28.38,1.68,33.44
						c1.57,1.64,0.85,4.31-1.33,4.96c-5.9,1.74-13.53,6.66-12.91,20.44c0.87,19.05,22.17,17.58,28.24,16.77
						c0.99-0.13,1.99,0.22,2.66,0.97c5.14,5.8,28.32,30.44,53.64,33.63c2.19,0.28,3.91-1.87,3.21-3.97l-10.66-31.98
						c-0.5-1.49,0.23-3.1,1.67-3.72L1488.2,1514.56z"/>
					
						<linearGradient id="SVGID_30_" gradientUnits="userSpaceOnUse" x1="-799.0706" y1="2594.3032" x2="-835.1057" y2="2475.4509" gradientTransform="matrix(0.7523 -0.6588 0.6588 0.7523 428.6042 -919.3558)">
						<stop  offset="0" style="stop-color:#FEBBBA"/>
						<stop  offset="1" style="stop-color:#FF928E"/>
					</linearGradient>
					<path class="st35" d="M1492.57,1519.13c0,0-27.37-19.17-29.54-3.27c-2.16,15.9,24.59,23.3,37.94,17.49L1492.57,1519.13z"/>
				</g>
				<g>
					<g>
						
							<linearGradient id="SVGID_31_" gradientUnits="userSpaceOnUse" x1="6272.9927" y1="1714.7526" x2="6422.5732" y2="2338.0066" gradientTransform="matrix(1 0 0 1 -4705.6621 0)">
							<stop  offset="0" style="stop-color:#09005D"/>
							<stop  offset="1" style="stop-color:#1A0F91"/>
						</linearGradient>
						<path class="st36" d="M1455.6,1970.97l63.61-222.15c0.72-2.52,2.87-4.36,5.48-4.66c11.53-1.34,44.92-5.12,83.48-8.38
							c46.45-3.93,100.38-7.11,132.62-4.4c4.58,0.38,7.35,5.23,5.31,9.35c-18.33,37.08-93.72,187.92-131.48,237.33
							c-1.25,1.64-3.19,2.59-5.25,2.57l-147.59-1.37C1457.49,1979.22,1454.42,1975.1,1455.6,1970.97z"/>
						
							<linearGradient id="SVGID_32_" gradientUnits="userSpaceOnUse" x1="6170.4956" y1="1879.6364" x2="6255.2446" y2="1879.6364" gradientTransform="matrix(1 0 0 1 -4705.6621 0)">
							<stop  offset="0" style="stop-color:#FEBBBA"/>
							<stop  offset="1" style="stop-color:#FF928E"/>
						</linearGradient>
						<path class="st37" d="M1470.97,1917.3c0,0-8.86-36.44-5.29-49.36c3.57-12.93,10.5-29.55,33.58-25.85
							c23.08,3.69,50.32,13.42,50.32,13.42s-1.38,16.84-18.92,11.41l10.88,8.42c0,0-1.56,13.48-16.37,6.28l10.12,11.16
							c0,0-6.36,11.07-17.27,3.97C1507.12,1889.64,1501.89,1921.69,1470.97,1917.3z"/>
					</g>
					<path class="st7" d="M1603.93,1802.09c0,10.31,8.36,18.67,18.67,18.67c10.31,0,18.67-8.36,18.67-18.67
						c0-10.31-8.36-18.67-18.67-18.67C1612.29,1783.42,1603.93,1791.78,1603.93,1802.09z"/>
					<linearGradient id="SVGID_33_" gradientUnits="userSpaceOnUse" x1="1521.6509" y1="1779.5249" x2="1703.5043" y2="1779.5249">
						<stop  offset="0" style="stop-color:#DAE3FE"/>
						<stop  offset="1" style="stop-color:#E9EFFD"/>
					</linearGradient>
					<path class="st38" d="M1526.41,1814.4l-4.76-1.41l12.95-43.93c2.11-7.16,7.89-12.53,15.07-14.02
						c41.05-8.57,149.17-10.32,153.75-10.39l0.08,4.96c-1.12,0.01-112.23,1.81-152.82,10.28c-5.39,1.12-9.73,5.17-11.32,10.57
						L1526.41,1814.4z"/>
				</g>
			</g>
			<g>
				<path class="st5" d="M773.56,2436.1c-6.78,10.03-33.73,237.22-37.95,321.12c-0.29,5.67,4.25,10.4,9.93,10.4l0,0
					c4.9,0,9.07-3.57,9.82-8.41l49.29-315.89L773.56,2436.1z"/>
				<path class="st5" d="M990.25,2436.1c6.78,10.03,33.73,237.22,37.95,321.12c0.29,5.67-4.25,10.4-9.94,10.4l0,0
					c-4.9,0-9.07-3.57-9.82-8.41l-49.29-315.89L990.25,2436.1z"/>
				<path class="st5" d="M732.8,2418.37l-0.02,2.48c-0.16,17.82,15.19,32.44,34.42,32.77l227.85,3.88
					c18.95,0.32,34.74-13.37,35.66-30.92l0.12-2.27c0.96-18.3-14.58-33.72-34.34-34.07l-227.95-4.09
					C749.02,2385.8,732.96,2400.28,732.8,2418.37z"/>
			</g>
			<g>
				<g>
					<path class="st5" d="M1212.77,2748.97c-40.5,0-58.42-3.47-66.44-6.64c1.56,6.65,7.48,11.9,14.97,11.9h143.29
						c4.82,0,7.87-4.62,6.72-8.8C1294.97,2746.75,1260.28,2748.97,1212.77,2748.97z"/>
					<linearGradient id="SVGID_34_" gradientUnits="userSpaceOnUse" x1="1273.6248" y1="2430.5891" x2="1228.483" y2="2742.478">
						<stop  offset="0" style="stop-color:#4F52FF"/>
						<stop  offset="1" style="stop-color:#4042E2"/>
					</linearGradient>
					<path class="st39" d="M1311.31,2745.43c-0.23-0.84-0.57-1.67-1.17-2.44c-10.92-13.94-32.84-35.82-62.67-35.4
						c-43.69,0.61-58.93,5.35-92.88,0.27l-8.01,26.55c-0.82,2.71-0.83,5.41-0.24,7.92c8.01,3.17,25.93,6.64,66.44,6.64
						C1260.28,2748.97,1294.97,2746.75,1311.31,2745.43z"/>
				</g>
				<linearGradient id="SVGID_35_" gradientUnits="userSpaceOnUse" x1="1154.5839" y1="2698.4932" x2="1199.2869" y2="2698.4932">
					<stop  offset="0" style="stop-color:#FEBBBA"/>
					<stop  offset="1" style="stop-color:#FF928E"/>
				</linearGradient>
				<path class="st40" d="M1164.42,2679.25l-9.83,33.44c0,0,21.78,9.92,40.94,1.96l3.76-28.97L1164.42,2679.25z"/>
				<g>
					<path class="st5" d="M1461.4,2727.92c-31.57,25.37-47.71,33.9-55.93,36.46c5.36,4.19,13.25,4.55,19.09-0.14l111.7-89.75
						c3.76-3.02,3.26-8.51-0.25-11.04C1524.09,2674.7,1498.44,2698.16,1461.4,2727.92z"/>
					<linearGradient id="SVGID_36_" gradientUnits="userSpaceOnUse" x1="1497.2227" y1="2462.9492" x2="1452.0807" y2="2774.8403">
						<stop  offset="0" style="stop-color:#4F52FF"/>
						<stop  offset="1" style="stop-color:#4042E2"/>
					</linearGradient>
					<path class="st41" d="M1536.01,2663.45c-0.71-0.51-1.49-0.94-2.44-1.16c-17.2-3.97-47.93-7.22-70.92,11.79
						c-33.68,27.84-42.6,41.06-72.24,58.38l10.31,25.62c1.05,2.61,2.72,4.72,4.75,6.3c8.22-2.56,24.36-11.09,55.93-36.46
						C1498.44,2698.16,1524.09,2674.7,1536.01,2663.45z"/>
				</g>
				<linearGradient id="SVGID_37_" gradientUnits="userSpaceOnUse" x1="1664.0062" y1="2063.4436" x2="1162.4906" y2="2434.5647">
					<stop  offset="0" style="stop-color:#09005D"/>
					<stop  offset="1" style="stop-color:#1A0F91"/>
				</linearGradient>
				<path class="st42" d="M954.08,2298.25c0,0,242.49,19.8,292.24,43.22c49.75,23.42-40.6,351.63-40.6,351.63
					s-13.54,6.52-43.68-2.85c0,0,30.9-242.21,7.91-294.73l-262.56-42.95L954.08,2298.25z"/>
				<linearGradient id="SVGID_38_" gradientUnits="userSpaceOnUse" x1="1366.3185" y1="2702.2554" x2="1419.6875" y2="2702.2554">
					<stop  offset="0" style="stop-color:#FEBBBA"/>
					<stop  offset="1" style="stop-color:#FF928E"/>
				</linearGradient>
				<path class="st43" d="M1366.32,2686.36c2.25,2.05,24.09,46.1,24.09,46.1s24.32-5.26,29.27-20.65l-21.88-39.76L1366.32,2686.36z"
					/>
				<linearGradient id="SVGID_39_" gradientUnits="userSpaceOnUse" x1="1166.7933" y1="2446.7974" x2="1802.0784" y2="2008.7856">
					<stop  offset="0" style="stop-color:#09005D"/>
					<stop  offset="1" style="stop-color:#1A0F91"/>
				</linearGradient>
				<path class="st44" d="M808.03,2296.23c0,0-7.9,19.01-7.58,44.28c0.45,34.95,28.54,63.3,63.45,65.04l286.67,13.07
					c6.05,0.28,11.18,4.47,12.69,10.33c6.74,26.06,39.66,106.07,200.62,265.74c4.28,4.25,10.95,4.97,16.05,1.75l22.91-14.47
					c2.41-1.52,3.17-4.67,1.74-7.13l-166.91-285.03c-8.77-14.47-22.86-24.92-39.25-29.11l-244.33-62.46L808.03,2296.23z"/>
				<linearGradient id="SVGID_40_" gradientUnits="userSpaceOnUse" x1="1069.8717" y1="1950.1997" x2="1096.1835" y2="1883.8484">
					<stop  offset="0" style="stop-color:#FEBBBA"/>
					<stop  offset="1" style="stop-color:#FF928E"/>
				</linearGradient>
				<path class="st45" d="M1090.54,1850.99c0,0-30.71,54.3-62.02,80.6l64.72,36.11c0,0,14.58-57.48,47.9-74.31L1090.54,1850.99z"/>
				<linearGradient id="SVGID_41_" gradientUnits="userSpaceOnUse" x1="1247.0531" y1="1752.0621" x2="1163.463" y2="1966.0524">
					<stop  offset="0" style="stop-color:#FF928E"/>
					<stop  offset="1" style="stop-color:#FE7062"/>
				</linearGradient>
				<path class="st46" d="M802.82,2298.25c0,0,77.39,18.86,151.26,0c0,0,103.36-138.95,143.35-176.77
					c0,0,63.79,100.65,205.76,114.92l7.92-17.69c0,0-113.03-52.1-147.82-132.16c-34.8-80.06-48.77-114.2-80.43-135.09
					c-19.72-13.01-31.52-21.9-37.62-26.75c-3.34-2.66-7.95-2.96-11.59-0.74C1000.05,1944.44,841.97,2052.71,802.82,2298.25z"/>
				<linearGradient id="SVGID_42_" gradientUnits="userSpaceOnUse" x1="1093.2065" y1="1458.2056" x2="1068.1307" y2="2275.6729">
					<stop  offset="0" style="stop-color:#E1473D"/>
					<stop  offset="1" style="stop-color:#E9605A"/>
				</linearGradient>
				<path class="st47" d="M1093.24,2119.53c-1.49,0-2.96-0.67-3.94-1.94c-24.65-32.14-38.37-67.56-38.94-69.04
					c-0.98-2.56,0.3-5.43,2.86-6.41c2.56-0.98,5.43,0.3,6.41,2.86c0.14,0.35,13.81,35.61,37.55,66.56c1.67,2.18,1.26,5.29-0.92,6.96
					C1095.36,2119.19,1094.29,2119.53,1093.24,2119.53z"/>
				<linearGradient id="SVGID_43_" gradientUnits="userSpaceOnUse" x1="1294.6621" y1="2208.2429" x2="1417.9382" y2="2208.2429">
					<stop  offset="0" style="stop-color:#FEBBBA"/>
					<stop  offset="1" style="stop-color:#FF928E"/>
				</linearGradient>
				<path class="st48" d="M1294.66,2209.47l15.98-4.26l48.52-11.24c5.84-1.35,11.98-0.32,17.05,2.88l41.72,26.25l-115.21-0.19
					L1294.66,2209.47z"/>
				<g>
					
						<linearGradient id="SVGID_44_" gradientUnits="userSpaceOnUse" x1="3022.165" y1="2294.585" x2="2890.0571" y2="2395.6677" gradientTransform="matrix(0.9914 -0.1306 0.1306 0.9914 -2145.6421 -64.8958)">
						<stop  offset="0" style="stop-color:#FEBBBA"/>
						<stop  offset="1" style="stop-color:#FF928E"/>
					</linearGradient>
					<path class="st49" d="M1139.3,1769.57c0,0,29.84,49.61,35.02,77.03c5.18,27.42,13.49,44.56-17.72,54.33
						c-31.21,9.77-60.21-2.6-78.41-28.19c0,0-28.43-39.39-25.59-57.43C1055.44,1797.27,1139.3,1769.57,1139.3,1769.57z"/>
					
						<linearGradient id="SVGID_45_" gradientUnits="userSpaceOnUse" x1="2929.353" y1="2214.79" x2="3048.981" y2="2368.8108" gradientTransform="matrix(0.9914 -0.1306 0.1306 0.9914 -2145.6421 -64.8958)">
						<stop  offset="0" style="stop-color:#09005D"/>
						<stop  offset="1" style="stop-color:#1A0F91"/>
					</linearGradient>
					<path class="st50" d="M1086.5,1851.52l4.04-0.53c0,0-21.13-31.93-7.3-39.85s70.18-27.36,79.96-49.55
						c9.43-21.39-4.68-45.56-21.69-50.61c-1.08-0.32-2.21,0.32-2.6,1.37l-1,2.69c-0.68,1.85-3.27,1.92-4.06,0.12l0,0
						c-0.75-1.71-3.2-1.78-3.97-0.08c-3.02,6.65-12.05,18-39.15,26.79c-38.45,12.47-62.4,31.85-59.46,59.17
						c0.19,1.73-1.53,2.92-3.12,2.22c-3.14-1.39-7.91-1.61-13.44,4.44c-9.62,10.52-2.08,33.54,24.2,49.83
						c1.25,0.77,1.47,2.54,0.35,3.49c-3.93,3.37-9.46,10.87,8.32,17.56c18.19,6.84,28.11,4.53,31.78,3.06
						c0.99-0.4,1.55-1.42,1.35-2.46l-4.67-23.94c-0.24-1.24,0.61-2.42,1.86-2.59L1086.5,1851.52z"/>
					
						<linearGradient id="SVGID_46_" gradientUnits="userSpaceOnUse" x1="3005.7781" y1="2273.1702" x2="2873.6711" y2="2374.2522" gradientTransform="matrix(0.9914 -0.1306 0.1306 0.9914 -2145.6421 -64.8958)">
						<stop  offset="0" style="stop-color:#FEBBBA"/>
						<stop  offset="1" style="stop-color:#FF928E"/>
					</linearGradient>
					<path class="st51" d="M1088.16,1856.44c0,0-13.17-32.47-27-21.06c-13.83,11.41,12.78,36.64,25.07,36.3L1088.16,1856.44z"/>
				</g>
			</g>
			<g>
				<g>
					
						<linearGradient id="SVGID_47_" gradientUnits="userSpaceOnUse" x1="15574.0176" y1="-17691.4121" x2="15244.3242" y2="-17372.6621" gradientTransform="matrix(-1.388 -0.0686 -0.0685 1.3855 -4718.1597 -413.1215)">
						<stop  offset="0" style="stop-color:#09005D"/>
						<stop  offset="1" style="stop-color:#1A0F91"/>
					</linearGradient>
					<path class="st52" d="M1250.15,2245.7c0.19,0.01,0.38,0.01,0.57,0.01l246.13-0.25c6.08,0,11.01-4.93,11-11.01
						c-0.01-6.08-4.96-11.09-11.03-10.99l-246.13,0.25c-6.08,0-11.01,4.93-11,11.01C1239.69,2240.61,1244.33,2245.41,1250.15,2245.7
						z"/>
				</g>
				<g>
					
						<linearGradient id="SVGID_48_" gradientUnits="userSpaceOnUse" x1="12523.5264" y1="-17862.6816" x2="12193.8467" y2="-17543.9453" gradientTransform="matrix(0.6475 -1.2297 -1.2274 -0.6463 8274.5176 -6144.7954)">
						<stop  offset="0" style="stop-color:#09005D"/>
						<stop  offset="1" style="stop-color:#1A0F91"/>
					</linearGradient>
					<path class="st53" d="M1592.17,2004.65c-0.09,0.17-0.17,0.34-0.25,0.51l-103.56,223.28c-2.56,5.52-0.17,12.06,5.34,14.62
						c5.51,2.56,12.15,0.18,14.61-5.37l103.56-223.28c2.56-5.52,0.17-12.06-5.34-14.62
						C1601.19,1997.32,1594.88,1999.5,1592.17,2004.65z"/>
				</g>
			</g>
			<g>
				<g>
					<rect x="2210.71" y="2470.09" class="st5" width="25.98" height="280.94"/>
					<path class="st5" d="M2337.46,2756.45h-227.53l0,0c0-9.34,7.57-16.91,16.91-16.91h193.71
						C2329.89,2739.53,2337.46,2747.11,2337.46,2756.45L2337.46,2756.45z"/>
					<path class="st5" d="M2371.23,2460.34c0,15.37-12.57,27.94-27.94,27.94h-230.2c-15.37,0-27.94-12.57-27.94-27.94v-25.26
						c0-15.37,12.57-27.94,27.94-27.94h230.2c15.37,0,27.94,12.57,27.94,27.94V2460.34z"/>
				</g>
				<g>
					<linearGradient id="SVGID_49_" gradientUnits="userSpaceOnUse" x1="1940.1995" y1="2513.2493" x2="2124.9114" y2="2513.2493">
						<stop  offset="0" style="stop-color:#FEBBBA"/>
						<stop  offset="1" style="stop-color:#FF928E"/>
					</linearGradient>
					<path class="st54" d="M2031.92,2282.77c0,0-38.6,5.98-82,35c-6.83,4.57-10.58,12.53-9.55,20.68
						c5.2,41.17,26.56,174.4,97.03,304.54c3.72,6.86,4.78,14.85,3.14,22.48l-12.24,56.97l-22.7,21.29h58.47l38.93-105.36
						l-16.65-5.26c-12.91-4.08-21.76-15.95-22-29.49l-1.95-113.02c1.67-50.35-30.88-85.1-30.88-85.1l93.38-4.54L2031.92,2282.77z"/>
					<linearGradient id="SVGID_50_" gradientUnits="userSpaceOnUse" x1="2053.2175" y1="2633.6077" x2="2026.0494" y2="3050.186">
						<stop  offset="0" style="stop-color:#4F52FF"/>
						<stop  offset="1" style="stop-color:#4042E2"/>
					</linearGradient>
					<path class="st55" d="M1982.76,2754c-5.33,6.97,57.32,16.17,88.96,0.92c0,0,43.87-76.33,43.87-115.63c0,0-3.48-8.01-29.24-6.2
						c0,0-14.73,90.38-30.28,100.5c-15.55,10.12-43.52,1.02-43.52,1.02S1990.62,2743.72,1982.76,2754z"/>
					<linearGradient id="SVGID_51_" gradientUnits="userSpaceOnUse" x1="1723.317" y1="2525.8669" x2="2113.0962" y2="2525.8669">
						<stop  offset="0" style="stop-color:#FEBBBA"/>
						<stop  offset="1" style="stop-color:#FF928E"/>
					</linearGradient>
					<path class="st56" d="M2113.1,2407.15c-0.5-0.86-100.54-12.03-100.54-12.03s3.27,30.42-6.96,72.29
						c-10.23,41.88-157.12,223.3-157.12,223.3l15.4,48.82c-47.62,16.59-94.46,19.24-140.56,8.46l95.45-57.28
						c0,0,89.33-304.42,144.05-358.73l100.28-34.7L2113.1,2407.15z"/>
					<linearGradient id="SVGID_52_" gradientUnits="userSpaceOnUse" x1="1963.8241" y1="2322.533" x2="2400.4885" y2="2322.533">
						<stop  offset="0" style="stop-color:#09005D"/>
						<stop  offset="1" style="stop-color:#1A0F91"/>
					</linearGradient>
					<path class="st57" d="M2337.46,2230.01c0,0,57.64,85.73,62.37,124.84c4.73,39.11-15.79,55-76.27,57.62
						c-60.48,2.62-221.94,2.58-221.94,2.58l-137.8-117.77c0,0,100.42-35.83,126.53-45.97
						C2116.47,2241.18,2337.46,2230.01,2337.46,2230.01z"/>
					<linearGradient id="SVGID_53_" gradientUnits="userSpaceOnUse" x1="1791.0477" y1="2616.5098" x2="1763.8796" y2="3033.0881">
						<stop  offset="0" style="stop-color:#4F52FF"/>
						<stop  offset="1" style="stop-color:#4042E2"/>
					</linearGradient>
					<path class="st58" d="M1858.05,2723.09c0,0,16.58,16.06,5.38,33.93c0,0-131.36,23.28-167.02,12.72c0,0,7.41-16.9,47.56-36.14
						l-2.96,2.27c-3.75,2.88-1.55,8.88,3.17,8.61C1770.65,2742.97,1825.41,2738.12,1858.05,2723.09z"/>
				</g>
				<g>
					<linearGradient id="SVGID_54_" gradientUnits="userSpaceOnUse" x1="2271.4087" y1="1593.2026" x2="2207.1106" y2="1930.9954">
						<stop  offset="0" style="stop-color:#09005D"/>
						<stop  offset="1" style="stop-color:#1A0F91"/>
					</linearGradient>
					<path class="st59" d="M2087.78,1686.3c117.83-20.03,173.3,76.07,169.25,96.26c-0.54,2.68,1.99,4.94,4.63,4.23
						c13.53-3.64,43.41-8.23,61.94,14.98c16.36,20.49,4.13,39.83-5.83,50.45c-2.41,2.56-0.38,6.73,3.11,6.29
						c24.87-3.14,78.91-3.89,87.75,46.73c8.25,47.21-24.61,60.52-44.1,64.27c-3.3,0.63-4.07,4.97-1.23,6.77
						c9.72,6.17,20.99,18.91,16.43,44.06c-7.13,39.42-84.42,36.2-93.46,35.68c-0.57-0.03-1.11-0.2-1.61-0.48l-123.8-70.61
						c-0.97-0.55-1.63-1.5-1.82-2.6l-24.99-144.34c-0.2-1.17,0.16-2.36,0.98-3.22l-80.71-113.89
						C2025.01,1716.59,2086.39,1686.54,2087.78,1686.3z"/>
					<linearGradient id="SVGID_55_" gradientUnits="userSpaceOnUse" x1="2700.989" y1="952.6416" x2="2453.563" y2="1554.4886">
						<stop  offset="0" style="stop-color:#FF928E"/>
						<stop  offset="1" style="stop-color:#FE7062"/>
					</linearGradient>
					<path class="st60" d="M2181.58,2218.66c0,0-67.12-63.92-100.16-106.25c-17.86-22.88-23.47-53.01-15.21-80.84
						c15.08-50.82,41.89-103.46,44.34-111.65c3.75-12.56,79.01-12.03,79.01-12.03s148.1,96.12,206.29,258.94l-65.35,20.35
						c0,0-38.67-64.88-76.88-106.12c0,0,66.11,87.34,68.44,123.09L2181.58,2218.66z"/>
					<linearGradient id="SVGID_56_" gradientUnits="userSpaceOnUse" x1="2165.0039" y1="2015.8214" x2="2138.6929" y2="1846.9922">
						<stop  offset="0" style="stop-color:#FEBBBA"/>
						<stop  offset="1" style="stop-color:#FF928E"/>
					</linearGradient>
					<path class="st61" d="M2101.44,1849.74c0.79,2.61,20.43,67.73,21.97,69.08c1.54,1.35,43.08,3.59,62.63-9.78l-48.51-94.88
						L2101.44,1849.74z"/>
					<g>
						
							<linearGradient id="SVGID_57_" gradientUnits="userSpaceOnUse" x1="-483.9142" y1="5605.1812" x2="-311.6957" y2="5722.1597" gradientTransform="matrix(0.6042 -0.7968 0.7968 0.6042 -2151.8752 -1935.3773)">
							<stop  offset="0" style="stop-color:#FEBBBA"/>
							<stop  offset="1" style="stop-color:#FF928E"/>
						</linearGradient>
						<path class="st62" d="M2022.69,1766.07c0,0-9.49,37.31,16.77,87.48c26.27,50.18,56,50.12,72.25,34.06
							c16.25-16.06,36.3-43.31,31.54-91.82C2138.49,1747.28,2036.4,1718.61,2022.69,1766.07z"/>
						
							<linearGradient id="SVGID_58_" gradientUnits="userSpaceOnUse" x1="-369.0322" y1="5465.2627" x2="-433.331" y2="5803.0586" gradientTransform="matrix(0.6042 -0.7968 0.7968 0.6042 -2151.8752 -1935.3773)">
							<stop  offset="0" style="stop-color:#09005D"/>
							<stop  offset="1" style="stop-color:#1A0F91"/>
						</linearGradient>
						<path class="st63" d="M2106.92,1798.42c0,0-43.58-66.62-84.44-14.19l-0.74,19.07c0,0-47.86-5.68-39.48-49.57
							c8.37-43.89,49.74-71.32,103.01-52.31c53.27,19.01,83.79,38.5,87.23,76.68c3.44,38.17-26.93,29.8-26.93,29.8
							s-9.91-26.88-23.99-29.67c-14.08-2.79-10.42,18.17-10.42,18.17L2106.92,1798.42z"/>
						
							<linearGradient id="SVGID_59_" gradientUnits="userSpaceOnUse" x1="-473.5906" y1="5589.9829" x2="-301.3731" y2="5706.9604" gradientTransform="matrix(0.6042 -0.7968 0.7968 0.6042 -2151.8752 -1935.3773)">
							<stop  offset="0" style="stop-color:#FEBBBA"/>
							<stop  offset="1" style="stop-color:#FF928E"/>
						</linearGradient>
						<path class="st64" d="M2118.08,1797.53c0,0-22.6-34.11,0.56-39.2c23.16-5.09,19.57,33.24,17.07,47.42L2118.08,1797.53z"/>
					</g>
					<linearGradient id="SVGID_60_" gradientUnits="userSpaceOnUse" x1="2273.0466" y1="2207.5151" x2="2639.197" y2="2207.5151">
						<stop  offset="0" style="stop-color:#FEBBBA"/>
						<stop  offset="1" style="stop-color:#FF928E"/>
					</linearGradient>
					<path class="st65" d="M2044.83,2223.41l49.32-47.53l68.22,28.82c0,0,67.91,10.52,106.78,0c38.87-10.52,38.87-10.52,38.87-10.52
						l87.83-27.34l13.79,38.99c3.5,9.9-0.02,20.89-8.58,26.97c-7.6,5.4-16.51,11.33-22.18,13.82c-11.57,5.06-285.13-3.5-285.13-3.5
						L2044.83,2223.41z"/>
				</g>
				<g>
					
						<linearGradient id="SVGID_61_" gradientUnits="userSpaceOnUse" x1="2188.5032" y1="2336.2468" x2="1958.0087" y2="2399.4192" gradientTransform="matrix(0.9988 -0.0494 0.0494 0.9988 -21.2867 -55.5231)">
						<stop  offset="0" style="stop-color:#09005D"/>
						<stop  offset="1" style="stop-color:#1A0F91"/>
					</linearGradient>
					<path class="st66" d="M2231.46,2245.82c-0.22,0.01-0.44,0.02-0.66,0.01l-286.08-0.31c-7.07-0.01-12.8-5.74-12.79-12.82
						c0.01-7.07,5.77-12.92,12.82-12.79l286.08,0.31c7.07,0.01,12.8,5.75,12.79,12.82
						C2243.62,2239.89,2238.23,2245.48,2231.46,2245.82z"/>
					<linearGradient id="SVGID_62_" gradientUnits="userSpaceOnUse" x1="1968.0376" y1="2020.9066" x2="1804.4912" y2="2193.7649">
						<stop  offset="0" style="stop-color:#09005D"/>
						<stop  offset="1" style="stop-color:#1A0F91"/>
					</linearGradient>
					<path class="st67" d="M1687.56,1986.08h238.25c17.58,0,33.57,10.14,41.07,26.04l110.14,233.55h-296.08
						c-11.33,0-21.5-6.92-25.67-17.45l-85.41-216.12C1664.93,1999.61,1674.13,1986.08,1687.56,1986.08z"/>
					<path class="st7" d="M1855.41,2105.83c5.16,16.04,1.35,31.62-8.52,34.79c-9.87,3.18-22.05-7.25-27.22-23.29
						c-5.16-16.04-1.35-31.62,8.52-34.79C1838.06,2079.36,1850.24,2089.78,1855.41,2105.83z"/>
				</g>
			</g>
			<g>
				<g>
					
						<linearGradient id="SVGID_63_" gradientUnits="userSpaceOnUse" x1="-9199.2295" y1="3022.9358" x2="-9196.8154" y2="3278.9209" gradientTransform="matrix(-1 0 0 1 -6719.2798 0)">
						<stop  offset="0" style="stop-color:#09005D"/>
						<stop  offset="1" style="stop-color:#1A0F91"/>
					</linearGradient>
					<path class="st68" d="M2557.62,2721.03c0,0,3,16.67,4.19,36.46c0.51,8.43-5.74,15.76-14.15,16.58
						c-29.28,2.84-95.93,8.08-138.49,1.94c-5.96-0.86-8.33-8.18-3.92-12.29c17.55-16.35,59.93-48.15,129.68-55.1L2557.62,2721.03z"
						/>
					
						<linearGradient id="SVGID_64_" gradientUnits="userSpaceOnUse" x1="-9260.9346" y1="2737.0652" x2="-9274.2168" y2="2633.2224" gradientTransform="matrix(-1 0 0 1 -6719.2798 0)">
						<stop  offset="0" style="stop-color:#FEBBBA"/>
						<stop  offset="1" style="stop-color:#FF928E"/>
					</linearGradient>
					<path class="st69" d="M2572.17,2683.45l-14.8,36.29c-2.03,4.97-7.07,8.06-12.42,7.5c-3.63-0.38-7.92-1.07-12.09-2.34
						c-8.35-2.54-13.07-11.39-10.57-19.76l11.17-37.38L2572.17,2683.45z"/>
					
						<linearGradient id="SVGID_65_" gradientUnits="userSpaceOnUse" x1="-9545.083" y1="3026.1973" x2="-9542.668" y2="3282.1807" gradientTransform="matrix(-1 0 0 1 -6719.2798 0)">
						<stop  offset="0" style="stop-color:#09005D"/>
						<stop  offset="1" style="stop-color:#1A0F91"/>
					</linearGradient>
					<path class="st70" d="M2825.28,2749.94c0,0-29.65,24.8-41.2,56.62c-3.18,8.75,3.54,17.97,12.85,17.97h61.01
						c8.93,0,15.78-8.03,14.22-16.83C2868.28,2785.73,2857.07,2750.03,2825.28,2749.94z"/>
					
						<linearGradient id="SVGID_66_" gradientUnits="userSpaceOnUse" x1="-9551.2363" y1="2772.6553" x2="-9564.1797" y2="2671.4631" gradientTransform="matrix(-1 0 0 1 -6719.2798 0)">
						<stop  offset="0" style="stop-color:#FEBBBA"/>
						<stop  offset="1" style="stop-color:#FF928E"/>
					</linearGradient>
					<path class="st71" d="M2862.01,2717.65c0,0-5.99,26.5-10.59,44.02c-0.84,3.18-4.23,4.92-7.32,3.82
						c-9.23-3.3-16.74-4.76-22.21-4.03c-2.52,0.34-4.73-1.76-4.76-4.31l-0.57-44.02L2862.01,2717.65z"/>
					
						<linearGradient id="SVGID_67_" gradientUnits="userSpaceOnUse" x1="-9641.6875" y1="2388.1426" x2="-9243.2979" y2="2388.1426" gradientTransform="matrix(-1 0 0 1 -6719.2798 0)">
						<stop  offset="0" style="stop-color:#09005D"/>
						<stop  offset="1" style="stop-color:#1A0F91"/>
					</linearGradient>
					<path class="st72" d="M2704.34,2121.24l-180.32,550.12c0,0,34.59,22.65,51.06,21.71l214.18-442.11
						c0,0,37.48,272.41,19.32,467.98l61.35,4.68c0,0,99.75-499.78,24.2-670.96L2704.34,2121.24z"/>
					<path class="st7" d="M2788.11,2246.21c0.07,0,0.15-0.01,0.22-0.01c0.96-0.12,1.64-0.99,1.51-1.95l-7-55.54
						c-0.12-0.96-0.98-1.62-1.95-1.51c-0.96,0.12-1.64,0.99-1.51,1.95l7,55.54C2786.49,2245.56,2787.24,2246.21,2788.11,2246.21z"/>
				</g>
				<linearGradient id="SVGID_68_" gradientUnits="userSpaceOnUse" x1="3080.6433" y1="1409.1438" x2="2983.679" y2="1542.8878">
					<stop  offset="0" style="stop-color:#FF928E"/>
					<stop  offset="1" style="stop-color:#FE7062"/>
				</linearGradient>
				<path class="st73" d="M2670.53,1637.17c0,0,146.09,12.97,125.43,117.07c0,0,80.76,151.98,118.51,331
					c1.23,5.83-2.67,11.51-8.54,12.51l-243.3,41.66c-6.71,1.15-13.18-3.04-14.89-9.63l-58.13-224.67l-22.65,104.46l-71.98-18.75
					l60.59-306.94C2555.58,1683.88,2564.03,1639.09,2670.53,1637.17z"/>
				<linearGradient id="SVGID_69_" gradientUnits="userSpaceOnUse" x1="3087.1904" y1="1231.5815" x2="2542.1831" y2="1890.2722">
					<stop  offset="0" style="stop-color:#E1473D"/>
					<stop  offset="1" style="stop-color:#E9605A"/>
				</linearGradient>
				<path class="st74" d="M2588.38,1895.07c0.13,0,0.26-0.01,0.39-0.04c0.98-0.21,1.6-1.18,1.39-2.16l-20.28-93.12
					c-0.21-0.98-1.17-1.59-2.16-1.38c-0.98,0.21-1.6,1.18-1.39,2.16l20.28,93.12C2586.79,1894.49,2587.54,1895.07,2588.38,1895.07z"
					/>
				<linearGradient id="SVGID_70_" gradientUnits="userSpaceOnUse" x1="2854.2012" y1="1924.1758" x2="2558.3076" y2="2240.1301">
					<stop  offset="0" style="stop-color:#FEBBBA"/>
					<stop  offset="1" style="stop-color:#FF928E"/>
				</linearGradient>
				<path class="st75" d="M2603.06,2172.17c7.66-4.21,16.64-5.38,25.12-3.27l16.93,4.21c3.6,0.9,7.16-1.58,7.58-5.27l17.52-155.92
					c21.9,10.4,53.5,9.16,63.92,8.4l-40.32,183.81h-141.09L2603.06,2172.17z"/>
				
					<linearGradient id="SVGID_71_" gradientUnits="userSpaceOnUse" x1="-9286.2412" y1="1880.6379" x2="-8947.4756" y2="1880.6379" gradientTransform="matrix(-1 0 0 1 -6719.2798 0)">
					<stop  offset="0" style="stop-color:#FEBBBA"/>
					<stop  offset="1" style="stop-color:#FF928E"/>
				</linearGradient>
				<path class="st76" d="M2228.2,1833.97l4.26-14.17c2.45-8.16,8.48-14.75,16.39-17.93l77.13-31.02c0,0,1.16-9.89-16.3-16.61
					c-17.46-6.72-13.38-26.28-13.38-26.28s23.86,10.88,58.78,28.14c19.97,9.87,31.18,27.3,37.12,40.41l174.77,213.06l-20.52,14.1
					c-26.98,18.54-64.09,9.43-79.43-19.49l-94.68-181.55C2324.81,1836.91,2276.71,1839.64,2228.2,1833.97z"/>
				<g>
					
						<linearGradient id="SVGID_72_" gradientUnits="userSpaceOnUse" x1="-9408.2031" y1="1690.636" x2="-9290.3047" y2="1569.6752" gradientTransform="matrix(-1 0 0 1 -6719.2798 0)">
						<stop  offset="0" style="stop-color:#FEBBBA"/>
						<stop  offset="1" style="stop-color:#FF928E"/>
					</linearGradient>
					<path class="st77" d="M2623.2,1537.78l44.93,125.76c0,0-39.79,31.11-68.83,20.59l-22.64-72.09
						C2576.67,1612.04,2593.96,1523.93,2623.2,1537.78z"/>
					<g>
						
							<linearGradient id="SVGID_73_" gradientUnits="userSpaceOnUse" x1="-9237.2207" y1="1493.463" x2="-9384.2109" y2="1687.9188" gradientTransform="matrix(-1 0 0 1 -6719.2798 0)">
							<stop  offset="0" style="stop-color:#FEBBBA"/>
							<stop  offset="1" style="stop-color:#FF928E"/>
						</linearGradient>
						<path class="st78" d="M2489.1,1492.61c0,1.94,43.28,122.53,43.28,122.53l68.33-26.18l-24.04-120.39
							C2576.67,1468.57,2489.1,1460.17,2489.1,1492.61z"/>
						
							<linearGradient id="SVGID_74_" gradientUnits="userSpaceOnUse" x1="-9349.4795" y1="1540.3705" x2="-9173.8975" y2="1540.3705" gradientTransform="matrix(-1 0 0 1 -6719.2798 0)">
							<stop  offset="0" style="stop-color:#09005D"/>
							<stop  offset="1" style="stop-color:#1A0F91"/>
						</linearGradient>
						<path class="st79" d="M2564.68,1497.9l17.62,62.39c0.23,0.8,0.34,1.61,0.34,2.44c0.01,5.09-1.25,22.6-19.09,20.22
							c-16.18-2.16-30.98-3.89-40.4,0.54c-4.23,1.99-6.25,6.85-4.67,11.25c3.94,10.96,13.26,35.48,24.61,55.55
							c2.3,4.07,7.36,5.66,11.62,3.72c12.83-5.84,39.56-18.91,58.59-34.46c2.58-2.11,3.82-5.42,3.2-8.69
							c-2.99-15.96-11.92-64.5-12.31-78.41c-0.37-13.06,14.28-23.02,20.73-26.77c2.11-1.23,3.62-3.25,4.19-5.63
							c2.02-8.4,3.74-27.42-20.52-31.61c-5.08-0.88-8.39-5.74-7.36-10.79c2.05-10.05,1.4-24.84-17.69-30.29
							c-19.4-5.54-31.61,6.14-37.81,15.09c-2.51,3.62-7.21,4.8-11.23,3c-2.29-1.02-5.06-1.07-8.03,1.44
							c-4.01,3.38-10.1,2.35-13.05-1.98c-5.66-8.33-15.93-16.64-33.33-11.01c-30.87,9.99-29.4,45.58-18.08,64.93
							c11.32,19.35,44.17,6.62,59.73-6.2c11.83-9.75,29.83-3.92,37.78-0.56C2562.06,1493.11,2563.94,1495.27,2564.68,1497.9z"/>
						
							<linearGradient id="SVGID_75_" gradientUnits="userSpaceOnUse" x1="-9452.5029" y1="1647.4565" x2="-9334.6055" y2="1526.4966" gradientTransform="matrix(-1 0 0 1 -6719.2798 0)">
							<stop  offset="0" style="stop-color:#FEBBBA"/>
							<stop  offset="1" style="stop-color:#FF928E"/>
						</linearGradient>
						<path class="st80" d="M2610.4,1555.22c0,0-18.27-34.56-6.19-45.42c12.08-10.85,32.55-9.08,32,17.95
							C2635.53,1561.37,2610.4,1555.22,2610.4,1555.22z"/>
					</g>
				</g>
				<linearGradient id="SVGID_76_" gradientUnits="userSpaceOnUse" x1="3194.8665" y1="1320.6775" x2="2649.8608" y2="1979.366">
					<stop  offset="0" style="stop-color:#E1473D"/>
					<stop  offset="1" style="stop-color:#E9605A"/>
				</linearGradient>
				<path class="st81" d="M2719.95,2022.67c9.97,0,17.09-0.76,17.86-0.84l1.3-0.14l53.2-248.03c0.21-0.98-0.41-1.94-1.39-2.15
					c-0.99-0.22-1.94,0.41-2.15,1.39l-52.65,245.45c-7.92,0.7-50.19,3.5-72.51-12.31l46.08-215.49l-9.62-18.13
					c-0.47-0.88-1.57-1.22-2.45-0.75c-0.88,0.47-1.22,1.57-0.75,2.45l9,16.96l-46.3,216.48l0.92,0.69
					C2676.63,2020.38,2702.6,2022.67,2719.95,2022.67z"/>
			</g>
			<g>
				<path class="st7" d="M1125.14,2778.88c-1.22,0-2.46-0.27-3.66-0.83c-4.7-2.21-6.87-8.16-4.85-13.29l194.39-493.24
					c2.02-5.13,7.47-7.5,12.18-5.3c4.7,2.21,6.87,8.16,4.85,13.29l-194.39,493.24C1132.15,2776.58,1128.74,2778.88,1125.14,2778.88z
					"/>
				<path class="st7" d="M1344.14,2778.88c-3.59,0-7.01-2.29-8.52-6.12l-194.39-493.24c-2.02-5.13,0.15-11.08,4.85-13.29
					c4.7-2.21,10.15,0.16,12.18,5.3l194.39,493.24c2.02,5.13-0.15,11.08-4.85,13.29C1346.6,2778.61,1345.36,2778.88,1344.14,2778.88
					z"/>
				<path class="st7" d="M2444.44,2778.88c-1.22,0-2.46-0.27-3.66-0.83c-4.7-2.21-6.87-8.16-4.85-13.29l194.39-493.24
					c2.02-5.13,7.47-7.5,12.18-5.3c4.7,2.21,6.87,8.16,4.85,13.29l-194.39,493.24C2451.45,2776.58,2448.03,2778.88,2444.44,2778.88z
					"/>
				<path class="st7" d="M2663.43,2778.88c-3.59,0-7.01-2.29-8.52-6.12l-194.39-493.24c-2.02-5.13,0.15-11.08,4.85-13.29
					c4.7-2.21,10.15,0.16,12.18,5.3l194.39,493.24c2.02,5.13-0.15,11.08-4.85,13.29
					C2665.89,2778.61,2664.65,2778.88,2663.43,2778.88z"/>
			</g>
			<g>
				<path class="st82" d="M2416.23,2236.68l281.55,0v-29.06h-281.55C2422.26,2207.63,2422.26,2236.68,2416.23,2236.68z"/>
				
					<linearGradient id="SVGID_77_" gradientUnits="userSpaceOnUse" x1="-2594.0842" y1="-14052.2578" x2="-2839.9031" y2="-13454.3203" gradientTransform="matrix(-1 0 0 1 -6719.2798 0)">
					<stop  offset="0" style="stop-color:#4F52FF"/>
					<stop  offset="1" style="stop-color:#4042E2"/>
				</linearGradient>
				<path class="st83" d="M2694.44,2236.68c1.84,0,3.34-1.5,3.34-3.34v-22.37c0-1.84-1.5-3.34-3.34-3.34h-283.45
					c-1.84,0-3.34-1.48-3.34-3.28c0-1.81,1.5-3.28,3.34-3.28h302.91c6.72,0,12.16,5.44,12.16,12.16v18.57
					c0,6.33-5.13,11.46-11.46,11.46h-303.61c-1.84,0-3.34-1.48-3.34-3.28s1.5-3.28,3.34-3.28H2694.44z"/>
			</g>
			<path class="st7" d="M2738.59,2256.27c0.95-3.24-0.34-6.6-3.51-9.15c-3.17-2.55-7.89-4.02-12.87-4.02H1035.19
				c-6.55,0-12.65,2.21-16.18,5.87c-3.53,3.66-4,8.26-1.26,12.2l18.28,26.25c4.19,6.01,13.26,9.86,23.24,9.86h1651.36
				c9.28,0,17.27-4.37,19.03-10.41L2738.59,2256.27z"/>
		</g>
		<g>
			<g>
				<g class="st84">
					<path class="st82" d="M1817.87,535.04c-5.34-1.11-8.77-6.34-7.66-11.68c2.16-10.37,3.9-21,5.17-31.57
						c0.64-5.35,5.46-9.18,10.8-8.64c0.06,0.01,0.13,0.01,0.19,0.02c5.41,0.65,9.27,5.57,8.62,10.99
						c-1.34,11.13-3.17,22.31-5.45,33.24c-1.04,4.99-5.68,8.32-10.65,7.81C1818.55,535.16,1818.21,535.11,1817.87,535.04z
						 M1818.05,439.88c-0.18-10.65-0.82-21.38-1.89-31.93c-0.55-5.42,3.39-10.27,8.82-10.83c5.45-0.54,10.27,3.4,10.83,8.82
						c1.13,11.09,1.8,22.4,1.99,33.6c0.09,5.45-4.26,9.95-9.71,10.04c-0.4,0.01-0.79-0.01-1.17-0.05
						C1822.01,449.04,1818.14,444.94,1818.05,439.88z M1807.3,356.78c-2.54-10.31-5.55-20.63-8.97-30.69
						c-1.75-5.16,1.01-10.77,6.18-12.53c5.16-1.75,10.77,1.01,12.53,6.18c3.6,10.59,6.77,21.47,9.44,32.32
						c1.3,5.3-1.93,10.64-7.23,11.95c-1.13,0.28-2.26,0.35-3.35,0.24C1811.86,363.84,1808.32,360.94,1807.3,356.78z M1778.23,278.16
						c-4.78-9.49-10.04-18.89-15.61-27.93c-2.86-4.64-1.42-10.73,3.22-13.59c4.65-2.86,10.73-1.41,13.59,3.22
						c5.87,9.52,11.39,19.41,16.43,29.4c2.45,4.87,0.5,10.81-4.37,13.26c-1.74,0.88-3.62,1.19-5.43,1.01
						C1782.82,283.21,1779.8,281.29,1778.23,278.16z M1732.36,207.98c-6.76-8.17-13.96-16.18-21.41-23.78
						c-3.82-3.9-3.75-10.15,0.14-13.97c3.9-3.82,10.15-3.75,13.96,0.15c7.84,8,15.42,16.42,22.52,25.02
						c3.48,4.2,2.88,10.43-1.32,13.9c-2.12,1.75-4.75,2.47-7.28,2.21C1736.49,211.26,1734.09,210.07,1732.36,207.98z M1672.12,149.7
						c-8.41-6.49-17.2-12.69-26.13-18.45c-4.58-2.95-5.91-9.07-2.96-13.65c2.95-4.59,9.06-5.91,13.65-2.96
						c9.4,6.05,18.65,12.59,27.5,19.42c4.32,3.33,5.12,9.53,1.78,13.85c-2.16,2.81-5.54,4.12-8.82,3.79
						C1675.37,151.52,1673.63,150.87,1672.12,149.7z M1311.11,85.2c-1.75-5.17,1.03-10.77,6.2-12.52
						c10.59-3.57,21.47-6.73,32.35-9.39c5.3-1.29,10.64,1.95,11.93,7.25c1.29,5.3-1.95,10.64-7.25,11.93
						c-10.33,2.52-20.67,5.52-30.72,8.92c-1.38,0.47-2.79,0.61-4.15,0.47C1315.74,91.49,1312.39,88.99,1311.11,85.2z
						 M1600.49,106.25c-9.64-4.45-19.58-8.54-29.57-12.15c-5.13-1.86-7.78-7.52-5.93-12.65c1.86-5.13,7.51-7.76,12.65-5.93
						c10.51,3.8,20.99,8.11,31.13,12.8c4.95,2.29,7.11,8.16,4.82,13.11c-1.81,3.93-5.88,6.1-9.96,5.68
						C1602.58,107.01,1601.52,106.72,1600.49,106.25z M1394.75,64.87c-0.54-5.43,3.42-10.27,8.84-10.81
						c11.12-1.11,22.43-1.76,33.62-1.93c5.46-0.11,9.94,4.27,10.02,9.73c0.08,5.45-4.27,9.94-9.73,10.02
						c-10.64,0.16-21.39,0.77-31.95,1.83c-0.67,0.07-1.34,0.06-1.99,0C1398.99,73.25,1395.22,69.62,1394.75,64.87z M1520.97,79.9
						c-10.38-2.18-21-3.95-31.55-5.24c-5.42-0.66-9.27-5.59-8.6-11c0.66-5.34,5.46-9.16,10.79-8.62c0.07,0.01,0.14,0.01,0.21,0.03
						c11.11,1.36,22.29,3.21,33.21,5.51c5.34,1.13,8.75,6.36,7.63,11.7c-1.05,4.98-5.69,8.3-10.65,7.79
						C1521.67,80.02,1521.32,79.97,1520.97,79.9z"/>
					<path class="st82" d="M1256.05,119.91c1.93,0.2,3.95-0.17,5.78-1.19c4.45-2.47,9.03-4.89,13.6-7.2
						c4.87-2.45,6.84-8.39,4.38-13.26c-2.45-4.87-8.39-6.84-13.26-4.38c-4.81,2.42-9.63,4.97-14.31,7.57
						c-4.77,2.65-6.49,8.66-3.84,13.43C1250.04,117.81,1252.95,119.59,1256.05,119.91z"/>
				</g>
				<g class="st84">
					<path class="st82" d="M1070.78,357.24c4.74,0.48,9.26-2.54,10.53-7.29c1.31-4.92,2.74-9.9,4.26-14.79
						c1.62-5.21-1.3-10.74-6.5-12.36c-5.23-1.62-10.74,1.3-12.36,6.5c-1.6,5.15-3.11,10.39-4.48,15.57
						c-1.4,5.27,1.74,10.68,7.01,12.08C1069.74,357.09,1070.26,357.18,1070.78,357.24z"/>
					<path class="st82" d="M1384.02,836.5c-5.39-0.81-9.11-5.85-8.29-11.24c0.82-5.39,5.84-9.09,11.24-8.29
						c10.27,1.55,20.76,2.69,31.31,3.4c5.42,0.35,9.56,5.08,9.19,10.52c-0.37,5.44-5.08,9.56-10.52,9.19
						c-4.57-0.31-9.12-0.69-13.64-1.15C1396.86,838.28,1390.37,837.46,1384.02,836.5z M1460.24,830.87
						c-0.37-5.44,3.74-10.15,9.18-10.52c10.45-0.72,20.97-1.88,31.29-3.47c5.38-0.84,10.43,2.87,11.26,8.26
						c0.83,5.39-2.87,10.43-8.26,11.26c-10.86,1.67-21.95,2.9-32.94,3.65c-0.57,0.04-1.13,0.03-1.68-0.03
						C1464.39,839.54,1460.57,835.74,1460.24,830.87z M1331.48,824.84c-10.54-3.11-21.09-6.71-31.36-10.71
						c-5.08-1.98-7.6-7.71-5.62-12.79c1.98-5.08,7.7-7.59,12.79-5.62c9.75,3.8,19.77,7.22,29.77,10.17
						c5.23,1.55,8.22,7.04,6.68,12.27c-1.37,4.63-5.82,7.5-10.46,7.03C1332.69,825.13,1332.09,825.02,1331.48,824.84z
						 M1543.95,817.95c-1.56-5.23,1.41-10.73,6.64-12.29c10.02-2.99,20.03-6.44,29.75-10.26c5.08-2,10.81,0.5,12.8,5.58
						c1.99,5.08-0.5,10.81-5.58,12.8c-10.24,4.02-20.78,7.66-31.33,10.81c-1.28,0.38-2.57,0.49-3.81,0.37
						C1548.56,824.57,1545.12,821.9,1543.95,817.95z M1251.48,791.2c-9.59-5.35-19.08-11.18-28.22-17.34
						c-4.52-3.05-5.72-9.18-2.67-13.7c3.05-4.53,9.19-5.72,13.71-2.67c8.68,5.85,17.7,11.39,26.81,16.47
						c4.76,2.66,6.47,8.67,3.81,13.44c-1.98,3.55-5.82,5.4-9.62,5.02C1253.99,792.28,1252.7,791.88,1251.48,791.2z M1180.8,740.84
						c-8.21-7.33-16.2-15.1-23.76-23.08c-3.75-3.96-3.58-10.21,0.38-13.96c3.97-3.76,10.22-3.58,13.96,0.38
						c7.18,7.58,14.78,14.96,22.58,21.93c4.07,3.63,4.42,9.88,0.79,13.94c-2.19,2.45-5.33,3.55-8.37,3.24
						C1184.37,743.1,1182.41,742.28,1180.8,740.84z M1122.77,676.26c-6.42-8.95-12.53-18.27-18.17-27.7
						c-2.8-4.68-1.27-10.74,3.41-13.54c4.69-2.8,10.75-1.27,13.54,3.41c5.35,8.96,11.16,17.82,17.27,26.33
						c3.18,4.43,2.16,10.6-2.27,13.78c-2.04,1.46-4.44,2.04-6.75,1.8C1127.08,680.06,1124.49,678.66,1122.77,676.26z
						 M1080.21,600.57c-4.31-10.14-8.23-20.58-11.66-31.03c-1.7-5.18,1.12-10.76,6.3-12.46c5.17-1.7,10.76,1.12,12.46,6.31
						c3.26,9.92,6.98,19.83,11.07,29.46c2.13,5.02-0.21,10.82-5.23,12.95c-1.59,0.67-3.25,0.9-4.85,0.74
						C1084.85,606.18,1081.67,604,1080.21,600.57z M1055.31,517.33c-1.96-10.81-3.49-21.85-4.53-32.81
						c-0.52-5.43,3.46-10.25,8.89-10.77c5.41-0.51,10.25,3.46,10.77,8.89c0.99,10.41,2.44,20.9,4.31,31.17
						c0.97,5.36-2.59,10.51-7.95,11.48c-0.93,0.17-1.86,0.2-2.76,0.11C1059.76,524.96,1056.11,521.76,1055.31,517.33z
						 M1049.3,430.74c0.32-8.09,0.9-16.27,1.71-24.31c0.29-2.91,0.62-5.81,0.98-8.7c0.67-5.41,5.54-9.37,11.01-8.59
						c5.41,0.66,9.26,5.59,8.59,11.01c-0.34,2.75-0.65,5.51-0.93,8.27c-0.77,7.65-1.32,15.42-1.63,23.11
						c-0.22,5.45-4.81,9.69-10.26,9.47c-0.2-0.01-0.41-0.02-0.61-0.04C1053.01,440.43,1049.09,435.98,1049.3,430.74z"/>
					<path class="st82" d="M1630.59,791.8c1.95,0.2,3.98-0.18,5.82-1.21c4.66-2.62,9.36-5.38,13.95-8.22
						c4.64-2.86,6.08-8.95,3.22-13.59c-2.87-4.64-8.95-6.09-13.59-3.22c-4.37,2.69-8.83,5.32-13.25,7.81
						c-4.75,2.67-6.45,8.69-3.77,13.44C1624.61,789.72,1627.5,791.49,1630.59,791.8z"/>
				</g>
				<g>
					<path class="st82" d="M1676.51,628.84c1.39-1.39,1.75-3.52,0.88-5.29l-24.61-50.5c13.83-22.29,24.2-46.95,30.36-73.24
						l53.07-18.31c1.86-0.64,3.11-2.39,3.11-4.36l-0.01-67.38c0-1.97-1.25-3.72-3.11-4.36l-53.08-18.3
						c-6.16-26.29-16.54-50.94-30.37-73.24l24.6-50.5c0.86-1.77,0.51-3.89-0.89-5.29l-47.65-47.64c-1.39-1.39-3.52-1.75-5.29-0.88
						l-50.5,24.61c-22.29-13.83-46.95-24.2-73.24-30.36l-18.31-53.07c-0.64-1.86-2.39-3.11-4.36-3.11l-67.38,0
						c-1.97,0-3.72,1.25-4.36,3.11l-18.3,53.08c-26.29,6.16-50.94,16.54-73.23,30.37l-50.5-24.6c-1.77-0.86-3.89-0.51-5.28,0.89
						l-47.64,47.65c-1.39,1.39-1.75,3.52-0.89,5.28l24.61,50.5c-13.83,22.29-24.2,46.95-30.36,73.24l-53.07,18.31
						c-1.86,0.64-3.11,2.39-3.11,4.36l0.01,67.38c0,1.97,1.25,3.72,3.11,4.36l53.08,18.3c6.16,26.29,16.54,50.94,30.37,73.23
						l-24.6,50.5c-0.86,1.77-0.51,3.89,0.89,5.29l47.65,47.64c1.39,1.39,3.51,1.75,5.28,0.89l50.5-24.61
						c22.29,13.83,46.95,24.2,73.24,30.36l18.31,53.07c0.64,1.86,2.39,3.11,4.36,3.11l67.38-0.01c1.97,0,3.72-1.25,4.36-3.11
						l18.3-53.07c26.29-6.16,50.94-16.54,73.23-30.37l50.5,24.6c1.77,0.86,3.89,0.51,5.28-0.89L1676.51,628.84z"/>
					<linearGradient id="SVGID_78_" gradientUnits="userSpaceOnUse" x1="1375.7299" y1="443.472" x2="1511.2085" y2="443.472">
						<stop  offset="0" style="stop-color:#DAE3FE"/>
						<stop  offset="1" style="stop-color:#E9EFFD"/>
					</linearGradient>
					<path class="st85" d="M1426.9,509.16c-36.21-9.14-58.24-46.03-49.1-82.25c4.43-17.54,15.42-32.31,30.95-41.58
						c15.53-9.27,33.75-11.95,51.29-7.51c36.21,9.14,58.24,46.03,49.1,82.25c-8.31,32.95-39.6,54.15-72.45,50.82
						C1433.44,510.55,1430.16,509.98,1426.9,509.16z M1416.85,398.89c-11.91,7.11-20.34,18.43-23.73,31.88
						c-7.01,27.76,9.88,56.05,37.65,63.06c27.77,7.02,56.05-9.88,63.06-37.65c7.01-27.76-9.88-56.05-37.65-63.06
						c-2.52-0.63-5.05-1.08-7.59-1.33C1437.57,390.68,1426.53,393.11,1416.85,398.89z"/>
					<linearGradient id="SVGID_79_" gradientUnits="userSpaceOnUse" x1="1275.9987" y1="442.3891" x2="1609.0867" y2="442.3891">
						<stop  offset="0" style="stop-color:#DAE3FE"/>
						<stop  offset="1" style="stop-color:#E9EFFD"/>
					</linearGradient>
					<path class="st86" d="M1425.46,608.07c5.64,0.57,11.35,0.86,17.09,0.86l0,0c1.81,0,3.62-0.03,5.43-0.09
						c8.92-0.29,17.8-1.28,26.51-2.97c0.12-0.02,0.24-0.05,0.36-0.07c0.34-0.07,0.67-0.13,1.01-0.2c0.65-0.13,1.31-0.27,1.96-0.41
						c1.72-0.37,2.93-1.8,3.1-3.46c0.04-0.4,0.02-0.82-0.07-1.24c-0.46-2.13-2.56-3.48-4.69-3.03c-10.97,2.37-22.28,3.57-33.59,3.56
						c-56.22,0.01-105.69-29.37-133.88-73.59c-15.68-24.59-24.78-53.77-24.78-85.04c0-5.48,0.27-10.93,0.82-16.31
						c3.67-36.21,19.55-69.79,45.63-95.87c29.96-29.97,69.8-46.47,112.17-46.48c87.51,0,158.65,71.16,158.66,158.63
						c0,5.39-0.27,10.77-0.81,16.1c-2.34,23.1-9.71,45.43-21.66,65.37c-0.31,0.52-0.49,1.07-0.54,1.63
						c-0.15,1.47,0.54,2.97,1.9,3.79c1.88,1.12,4.3,0.52,5.42-1.36c12.54-20.93,20.29-44.37,22.74-68.63
						c0.57-5.6,0.85-11.23,0.86-16.9c-0.01-91.84-74.75-166.54-166.56-166.53c-44.49,0-86.31,17.33-117.76,48.79
						c-27.38,27.39-44.06,62.63-47.91,100.65c-0.57,5.65-0.86,11.36-0.86,17.12c0,44.49,17.33,86.31,48.79,117.76
						C1352.18,587.55,1387.44,604.22,1425.46,608.07z"/>
				</g>
			</g>
			<g>
				<g class="st84">
					<path class="st82" d="M2127.98,828.06c2.63,0.27,5.22-1.2,6.26-3.77c1.95-4.8,3.78-9.72,5.45-14.63
						c1.08-3.19-0.63-6.65-3.82-7.73c-3.19-1.09-6.65,0.63-7.73,3.82c-1.58,4.68-3.33,9.37-5.19,13.95
						c-1.27,3.12,0.23,6.67,3.35,7.95C2126.84,827.87,2127.41,828,2127.98,828.06z"/>
					<path class="st82" d="M2140.98,783.07c-3.3-0.68-5.42-3.9-4.75-7.2c1.71-8.33,3.01-16.84,3.87-25.3
						c0.18-1.78,0.34-3.58,0.48-5.38c0.27-3.35,3.21-5.86,6.57-5.59c3.16,0.38,5.86,3.21,5.59,6.57c-0.15,1.88-0.32,3.76-0.51,5.62
						c-0.9,8.87-2.26,17.79-4.06,26.52c-0.63,3.09-3.51,5.15-6.58,4.84C2141.39,783.14,2141.18,783.11,2140.98,783.07z
						 M2141.17,714.22c-0.43-10.3-1.51-20.66-3.2-30.8c-0.55-3.32,1.69-6.46,5.01-7.02c3.31-0.55,6.47,1.69,7.02,5.01
						c1.77,10.63,2.9,21.49,3.35,32.29c0.14,3.37-2.47,6.21-5.84,6.35c-0.29,0.01-0.59,0-0.88-0.03
						C2143.67,719.73,2141.3,717.29,2141.17,714.22z M2130.99,653.24c-2.94-9.86-6.53-19.65-10.67-29.08
						c-1.35-3.08,0.05-6.68,3.13-8.03c3.09-1.36,6.68,0.04,8.04,3.13c4.35,9.89,8.11,20.16,11.19,30.5c0.96,3.23-0.87,6.63-4.1,7.59
						c-0.79,0.23-1.58,0.3-2.35,0.22C2133.84,657.32,2131.72,655.67,2130.99,653.24z M2106.13,596.62
						c-5.28-8.86-11.15-17.47-17.46-25.58c-2.07-2.66-1.59-6.49,1.07-8.56c2.65-2.06,6.49-1.59,8.56,1.07
						c6.62,8.51,12.77,17.54,18.31,26.82c1.72,2.89,0.77,6.64-2.12,8.36c-1.17,0.69-2.47,0.95-3.73,0.83
						C2108.91,599.38,2107.16,598.34,2106.13,596.62z M2068.21,547.78c-7.27-7.3-15.05-14.22-23.15-20.57
						c-2.65-2.08-3.11-5.91-1.03-8.56c2.08-2.65,5.91-3.12,8.56-1.03c8.48,6.65,16.64,13.91,24.26,21.56
						c2.37,2.39,2.37,6.25-0.02,8.63c-1.35,1.34-3.17,1.92-4.92,1.75C2070.56,549.41,2069.25,548.82,2068.21,547.78z
						 M2019.58,509.63c-8.82-5.31-18.05-10.12-27.44-14.29c-3.08-1.37-4.47-4.97-3.1-8.05c1.37-3.08,4.96-4.46,8.05-3.1
						c9.85,4.37,19.53,9.42,28.78,14.99c2.88,1.74,3.82,5.49,2.08,8.37c-1.26,2.09-3.57,3.15-5.84,2.92
						C2021.24,510.39,2020.38,510.11,2019.58,509.63z M1963.12,484.54c-9.82-2.98-19.96-5.37-30.14-7.12
						c-3.32-0.57-5.55-3.73-4.97-7.05c0.57-3.32,3.71-5.5,7.05-4.98c10.67,1.84,21.3,4.35,31.6,7.47c3.22,0.98,5.05,4.38,4.07,7.61
						c-0.86,2.84-3.6,4.59-6.45,4.3C1963.9,484.73,1963.51,484.66,1963.12,484.54z M1864.68,468.86c-0.25-3.36,2.26-6.28,5.63-6.54
						c9.3-0.7,18.8-0.9,28.2-0.6c1.43,0.04,2.85,0.1,4.28,0.16c3.35,0.06,5.96,3.02,5.79,6.39c-0.16,3.37-3.02,5.96-6.39,5.79
						c-1.33-0.07-2.67-0.12-4.04-0.16c-9-0.29-18.06-0.1-26.93,0.57c-0.37,0.03-0.73,0.02-1.08-0.01
						C1867.25,474.17,1864.9,471.85,1864.68,468.86z"/>
				</g>
				<g class="st84">
					<path class="st82" d="M1859.98,986.73c-10.56-1.21-21.14-3.07-31.45-5.54c-3.27-0.79-5.3-4.07-4.51-7.35
						c0.78-3.28,4.09-5.26,7.35-4.51c9.83,2.35,19.92,4.13,29.99,5.28c3.35,0.38,5.75,3.41,5.37,6.75
						c-0.38,3.32-3.36,5.71-6.67,5.38C1860.03,986.73,1860,986.73,1859.98,986.73z M1885.74,982.38c-0.02-3.37,2.69-6.12,6.06-6.13
						c10.13-0.06,20.36-0.74,30.41-2.02c3.32-0.41,6.4,1.94,6.82,5.29c0.43,3.34-1.94,6.39-5.28,6.82
						c-10.53,1.34-21.25,2.05-31.87,2.11c-0.22,0-0.44-0.01-0.66-0.03C1888.16,988.1,1885.76,985.53,1885.74,982.38z
						 M1797.97,971.87c-9.96-3.73-19.78-8.09-29.18-12.98c-2.99-1.55-4.15-5.24-2.6-8.23c1.55-2.99,5.22-4.15,8.22-2.6
						c8.97,4.66,18.33,8.82,27.84,12.38c3.16,1.18,4.75,4.7,3.58,7.85c-0.99,2.65-3.63,4.21-6.33,3.93
						C1798.99,972.17,1798.47,972.05,1797.97,971.87z M1947.74,975.96c-0.83-3.26,1.15-6.58,4.41-7.41
						c9.82-2.5,19.58-5.62,29.02-9.29c3.14-1.22,6.67,0.34,7.9,3.47c1.22,3.14-0.33,6.68-3.47,7.9c-9.89,3.85-20.14,7.13-30.43,9.75
						c-0.71,0.18-1.43,0.23-2.12,0.16C1950.56,980.27,1948.39,978.51,1947.74,975.96z M1741.41,942.47
						c-8.75-6-17.23-12.6-25.2-19.61c-2.53-2.23-2.77-6.08-0.55-8.61c2.23-2.53,6.08-2.78,8.61-0.55
						c7.6,6.7,15.69,12.99,24.04,18.71c2.78,1.9,3.49,5.7,1.58,8.48c-1.3,1.9-3.5,2.84-5.65,2.62
						C1743.26,943.4,1742.28,943.07,1741.41,942.47z M1693.55,900.36c-7.08-7.94-13.73-16.38-19.78-25.08
						c-1.92-2.76-1.24-6.56,1.52-8.48c2.76-1.92,6.57-1.25,8.49,1.52c5.77,8.3,12.13,16.34,18.88,23.92
						c2.24,2.51,2.02,6.37-0.49,8.61c-1.33,1.18-3.03,1.68-4.68,1.51C1696.02,902.22,1694.6,901.54,1693.55,900.36z M1657.14,847.99
						c-4.98-9.41-9.41-19.2-13.19-29.1c-1.2-3.15,0.38-6.67,3.52-7.87c3.15-1.2,6.67,0.38,7.87,3.52
						c3.6,9.45,7.84,18.78,12.58,27.75c1.58,2.98,0.44,6.67-2.54,8.24c-1.1,0.59-2.3,0.8-3.46,0.68
						C1659.97,851.01,1658.14,849.86,1657.14,847.99z"/>
					<path class="st82" d="M2011.36,957.81c1.17,0.12,2.39-0.1,3.5-0.7c4.6-2.47,9.14-5.1,13.51-7.79c2.86-1.77,3.76-5.53,1.99-8.4
						c-1.77-2.86-5.53-3.75-8.4-1.99c-4.16,2.57-8.5,5.07-12.89,7.44c-2.97,1.6-4.07,5.3-2.48,8.26
						C2007.6,956.48,2009.41,957.61,2011.36,957.81z"/>
				</g>
				<g>
					<path class="st82" d="M2046.13,847.01c0.93-0.93,1.17-2.35,0.59-3.54l-16.47-33.79c9.25-14.92,16.2-31.42,20.31-49.01
						l35.51-12.25c1.25-0.43,2.08-1.6,2.08-2.92l0-45.09c0-1.32-0.84-2.49-2.08-2.92l-35.52-12.24
						c-4.12-17.59-11.07-34.09-20.32-49.01l16.46-33.79c0.58-1.18,0.34-2.61-0.59-3.54l-31.89-31.88c-0.93-0.93-2.35-1.17-3.54-0.59
						l-33.79,16.47c-14.92-9.25-31.42-16.2-49.01-20.32l-12.25-35.51c-0.43-1.25-1.6-2.08-2.92-2.08l-45.09,0
						c-1.32,0-2.49,0.84-2.92,2.08l-12.24,35.52c-17.59,4.12-34.09,11.07-49.01,20.32l-33.8-16.46c-1.18-0.58-2.6-0.34-3.54,0.59
						l-31.88,31.89c-0.93,0.93-1.17,2.35-0.59,3.54l16.47,33.79c-9.25,14.92-16.2,31.42-20.32,49.01l-35.51,12.25
						c-1.25,0.43-2.08,1.6-2.08,2.92l0,45.09c0,1.32,0.84,2.49,2.08,2.92l35.52,12.24c4.12,17.59,11.07,34.09,20.32,49.01
						l-16.46,33.79c-0.58,1.18-0.34,2.6,0.59,3.54l31.89,31.88c0.93,0.93,2.35,1.17,3.54,0.59l33.79-16.47
						c14.92,9.25,31.42,16.2,49.01,20.32l12.25,35.51c0.43,1.25,1.6,2.08,2.92,2.08l45.09,0c1.32,0,2.49-0.84,2.92-2.08l12.24-35.52
						c17.59-4.12,34.09-11.07,49.01-20.32l33.8,16.46c1.18,0.58,2.6,0.34,3.54-0.59L2046.13,847.01z"/>
					<linearGradient id="SVGID_80_" gradientUnits="userSpaceOnUse" x1="1844.0315" y1="722.9892" x2="1936.3298" y2="722.9892">
						<stop  offset="0" style="stop-color:#DAE3FE"/>
						<stop  offset="1" style="stop-color:#E9EFFD"/>
					</linearGradient>
					<path class="st87" d="M1878.9,767.71c-11.95-3.01-22.01-10.5-28.33-21.09c-6.32-10.58-8.14-22.99-5.12-34.94
						c6.22-24.66,31.32-39.64,56.03-33.45c24.67,6.23,39.67,31.36,33.44,56.02c-3.01,11.95-10.5,22.01-21.08,28.33
						c-8.6,5.13-18.41,7.3-28.2,6.31C1883.39,768.67,1881.14,768.27,1878.9,767.71z M1857.28,714.67
						c-2.22,8.79-0.88,17.92,3.77,25.71c4.65,7.78,12.05,13.29,20.84,15.51l0,0c8.79,2.21,17.92,0.88,25.7-3.77
						c7.78-4.64,13.29-12.05,15.51-20.83c4.58-18.14-6.46-36.63-24.6-41.21c-1.64-0.41-3.28-0.7-4.91-0.86
						C1877.13,687.54,1861.45,698.17,1857.28,714.67z"/>
					<linearGradient id="SVGID_81_" gradientUnits="userSpaceOnUse" x1="1774.6677" y1="722.2472" x2="2004.4701" y2="722.2472">
						<stop  offset="0" style="stop-color:#DAE3FE"/>
						<stop  offset="1" style="stop-color:#E9EFFD"/>
					</linearGradient>
					<path class="st88" d="M1877.91,836.56c3.84,0.39,7.73,0.58,11.67,0.59c7.82,0,15.65-0.79,23.29-2.37
						c0.34-0.07,0.69-0.15,1.03-0.22c2.65-0.57,4.52-2.78,4.79-5.34c0.06-0.62,0.03-1.27-0.11-1.91c-0.71-3.29-3.96-5.37-7.25-4.67
						c-7.12,1.54-14.43,2.31-21.74,2.31l0,0c-0.4,0-0.8,0-1.2-0.01c-17.3-0.16-33.9-4.64-48.63-12.83
						c-7.99-4.45-15.44-10-22.13-16.58c-0.05-0.05-0.11-0.11-0.16-0.16c-0.17-0.17-0.33-0.33-0.5-0.49
						c-19.4-19.4-30.08-45.19-30.09-72.62c0-3.55,0.18-7.07,0.53-10.56c2.38-23.44,12.66-45.18,29.54-62.07
						c19.4-19.4,45.19-30.08,72.62-30.08c27.41,0.01,53.22,10.68,72.63,30.07c19.4,19.4,30.08,45.19,30.09,72.62
						c0,3.49-0.18,6.97-0.52,10.42c-1.52,14.96-6.29,29.41-14.02,42.32c-0.48,0.8-0.75,1.65-0.84,2.52
						c-0.23,2.28,0.84,4.59,2.93,5.85c2.89,1.72,6.63,0.8,8.37-2.1c8.65-14.44,13.99-30.61,15.69-47.34
						c0.39-3.86,0.59-7.75,0.59-11.66c0-30.7-11.96-59.55-33.66-81.25c-21.7-21.7-50.54-33.67-81.25-33.64
						c-30.69,0-59.54,11.95-81.24,33.66c-18.89,18.89-30.4,43.21-33.05,69.44c-0.39,3.89-0.6,7.84-0.6,11.81
						C1774.68,781.67,1820.02,830.7,1877.91,836.56z"/>
				</g>
			</g>
		</g>
	</g>
</g>
</svg>
