<svg width="96" height="96" viewBox="0 0 96 96" fill="none" xmlns="http://www.w3.org/2000/svg">
<path d="M48.1506 92.9023C25.9523 92.9023 7.89234 74.844 7.89234 52.644V51.0958H6.04211L10.9887 43.1786L15.9359 51.0958H14.0857V52.644C14.0857 71.4275 29.367 86.7086 48.1503 86.7086C63.1121 86.7086 76.5406 76.7028 80.8023 62.376L77.8357 61.4934C76.7784 65.0485 75.0827 68.2957 72.9246 71.1598L72.924 43.3541H60.5369V80.9826C58.5615 81.8525 56.4848 82.5061 54.3433 82.9506L54.3427 34.0644H42.2235L45.4364 30.3157C46.2601 30.7195 47.1721 30.9673 48.1491 30.9673C50.0074 30.9673 51.6581 30.1282 52.7945 28.8272L60.6775 32.768C60.5877 33.1878 60.5368 33.6198 60.5368 34.0644C60.5368 37.4803 63.3145 40.2579 66.7304 40.2579C70.1463 40.2579 72.9239 37.4803 72.9239 34.0644C72.9239 30.6485 70.1463 27.8709 66.7304 27.8709C64.8721 27.8709 63.2214 28.7099 62.085 30.011L54.202 26.0702C54.2918 25.6503 54.3427 25.2184 54.3427 24.7737C54.3427 21.3579 51.565 18.5802 48.1491 18.5802C44.7332 18.5802 41.9556 21.3579 41.9556 24.7737C41.9556 26.0896 42.3754 27.3069 43.0779 28.3122L32.2793 40.9101C31.4576 40.5057 30.5456 40.2579 29.5686 40.2579C26.1528 40.2579 23.3751 43.0356 23.3751 46.4515C23.3751 49.8673 26.1528 52.645 29.5686 52.645C32.9845 52.645 35.7622 49.8673 35.7622 46.4515C35.7622 45.1356 35.3423 43.9183 34.6399 42.913L41.9557 34.3771V82.9822C39.7988 82.5423 37.7316 81.8612 35.7622 80.9974V55.7408H23.3751V71.1687C19.7871 66.3828 17.5332 60.5436 17.2184 54.192H21.5228L10.988 37.3351L0.451172 54.1927H4.82054C5.64018 77.3852 24.7628 95.9989 48.1491 95.9989C68.5388 95.9989 85.9234 82.1312 90.4303 62.2789L87.4095 61.5932C83.2256 80.0287 67.0832 92.9029 48.1489 92.9029L48.1506 92.9023ZM66.7318 30.9669C68.4394 30.9669 69.8288 32.3557 69.8288 34.0639C69.8288 35.7715 68.44 37.1609 66.7318 37.1609C65.0242 37.1609 63.6348 35.7721 63.6348 34.0639C63.6348 32.3557 65.0236 30.9669 66.7318 30.9669ZM48.1506 21.677C49.8582 21.677 51.2477 23.0658 51.2477 24.774C51.2477 26.4816 49.8588 27.871 48.1506 27.871C46.4431 27.871 45.0536 26.4822 45.0536 24.774C45.0543 23.0658 46.4431 21.677 48.1506 21.677ZM29.5695 49.5478C27.8619 49.5478 26.4725 48.159 26.4725 46.4508C26.4725 44.7432 27.8613 43.3538 29.5695 43.3538C31.2771 43.3538 32.6665 44.7426 32.6665 46.4508C32.6665 48.159 31.2777 49.5478 29.5695 49.5478ZM63.6341 46.4515H69.8276V74.6875C67.9668 76.5083 65.8841 78.0859 63.6341 79.3931V46.4515ZM45.0529 37.1609H51.2465V83.4364C50.2232 83.5422 49.1933 83.6131 48.1494 83.6131C47.1041 83.6131 46.0715 83.5589 45.0524 83.4585L45.0529 37.1609ZM26.4718 58.8381H32.6653V79.4181C30.4079 78.1069 28.3234 76.5353 26.4718 74.7158V58.8381Z" fill="#0E134E"/>
<path d="M17.182 34.0646C26.573 34.0646 34.2143 26.4233 34.2143 17.0323C34.2143 16.6004 34.1815 16.1758 34.1493 15.7519C38.4726 13.5561 43.2866 12.3869 48.1495 12.3869C64.7051 12.3869 78.2695 25.4477 79.0804 41.8058H74.776L85.3115 58.6634L95.8484 41.8058H91.479C90.6593 18.6132 71.5367 -0.000488281 48.1504 -0.000488281C41.4285 -0.000488281 34.7603 1.59594 28.7755 4.58917C25.7313 1.75048 21.6626 -0.000488281 17.1827 -0.000488281C7.79165 -0.000488281 0.150391 7.64077 0.150391 17.0318C0.150391 26.4228 7.79165 34.0641 17.1827 34.0641L17.182 34.0646ZM3.33775 15.4834C3.63641 12.8002 4.70047 10.3493 6.30432 8.34376L8.42232 10.4618L10.612 8.27211L8.49398 6.15411C10.4995 4.55031 12.9504 3.48634 15.6336 3.18753V6.19285H18.7307V3.18753C21.4139 3.4862 23.8648 4.55025 25.8703 6.15411L23.7523 8.27211L25.942 10.4618L28.06 8.34376C29.6638 10.3486 30.7278 12.8002 31.0266 15.4834H28.0206V18.5805H31.0259C30.7272 21.2637 29.6631 23.7146 28.0593 25.7201L25.9413 23.6021L23.7516 25.7918L25.8696 27.9098C23.8648 29.5136 21.4132 30.5775 18.73 30.8763L18.7306 27.8703H15.6336V30.8757C12.9504 30.577 10.4995 29.5129 8.49396 27.9091L10.612 25.7911L8.4223 23.6014L6.3043 25.7194C4.7005 23.7146 3.63705 21.263 3.33773 18.5798H6.34305V15.4827L3.33775 15.4834ZM88.4075 43.3543V44.9025H90.2577L85.3111 52.8197L80.3639 44.9025H82.2141V43.3543C82.2141 24.5709 66.9328 9.28971 48.1495 9.28971C43.1184 9.28971 38.1297 10.4154 33.5975 12.5582C33.0417 10.5238 32.1216 8.64411 30.9062 6.98674C36.2673 4.44479 42.1871 3.09685 48.1502 3.09685C70.3502 3.09685 88.4085 21.1551 88.4085 43.3551L88.4075 43.3543Z" fill="#0E134E"/>
<path d="M15.6338 21.6771H18.7308V16.3909L13.6315 11.2916L11.4424 13.4813L15.6336 17.6725L15.6338 21.6771Z" fill="#0E134E"/>
</svg>
